<?xml version="1.0" standalone="no"?>
<!DOCTYPE svg PUBLIC "-//W3C//DTD SVG 20010904//EN"
 "http://www.w3.org/TR/2001/REC-SVG-20010904/DTD/svg10.dtd">
<svg version="1.0" xmlns="http://www.w3.org/2000/svg"
 width="2600.000000pt" height="2600.000000pt" viewBox="0 0 2600.000000 2600.000000"
 preserveAspectRatio="xMidYMid meet">
<metadata>
Created by potrace 1.14, written by Peter Selinger 2001-2017
</metadata>
<g transform="translate(0.000000,2600.000000) scale(0.100000,-0.100000)"
fill="#e78a4b" stroke="none">
<path d="M7990 23156 l0 -834 313 -5 c237 -3 351 -10 473 -26 484 -63 900
-188 1322 -396 602 -296 1112 -718 1512 -1250 762 -1015 1021 -2311 710 -3555
-142 -568 -441 -1161 -815 -1615 -521 -633 -1193 -1092 -1965 -1343 -673 -219
-1417 -260 -2127 -117 -720 145 -1373 471 -1943 971 -830 728 -1352 1801
-1406 2889 l-7 135 -834 0 -833 0 0 -64 c0 -96 27 -420 50 -593 226 -1717
1202 -3240 2681 -4183 l116 -74 -144 -92 c-384 -249 -673 -482 -998 -808 -916
-920 -1494 -2100 -1660 -3391 -21 -164 -45 -480 -45 -592 l0 -93 835 0 835 0
0 103 c1 166 31 434 75 660 331 1683 1679 3008 3370 3311 420 76 858 86 1300
30 1093 -137 2117 -733 2792 -1625 667 -881 957 -1971 817 -3074 -207 -1642
-1399 -3034 -2988 -3491 -393 -113 -710 -157 -1143 -158 l-293 -1 0 -832 0
-833 27 -6 c43 -11 584 4 759 20 1080 103 2047 466 2919 1095 422 304 851 718
1181 1141 109 139 248 337 339 483 37 59 69 106 70 105 1 -2 43 -68 94 -147
661 -1034 1656 -1852 2796 -2296 923 -360 1904 -480 2895 -355 85 11 175 24
200 28 l45 8 3 850 2 850 -162 -32 c-502 -101 -1048 -111 -1543 -28 -935 156
-1807 640 -2440 1354 -607 686 -972 1542 -1045 2454 -5 71 -10 226 -10 345 1
651 144 1259 434 1847 587 1188 1710 2034 3011 2268 420 76 877 86 1305 30
1021 -134 1955 -641 2631 -1429 610 -710 963 -1600 1006 -2532 l6 -143 834 0
835 0 -7 137 c-46 1026 -293 1885 -787 2747 -477 829 -1145 1515 -2011 2062
l-47 30 117 75 c365 231 669 474 992 792 804 794 1358 1796 1599 2892 77 349
110 604 137 1058 l5 97 -833 0 -834 0 -7 -117 c-82 -1369 -795 -2578 -1958
-3320 -415 -265 -957 -478 -1442 -568 -994 -183 -1976 -24 -2841 460 -1106
619 -1878 1713 -2089 2960 -67 393 -74 868 -20 1270 85 627 312 1229 667 1760
145 218 289 395 482 594 713 734 1647 1177 2661 1261 156 13 549 13 694 0 208
-19 521 -68 628 -99 l32 -10 -2 852 -3 851 -40 8 c-195 41 -652 78 -960 78
-1132 0 -2215 -318 -3175 -934 -704 -451 -1320 -1071 -1776 -1788 l-81 -127
-83 132 c-663 1044 -1655 1862 -2805 2312 -699 273 -1401 405 -2157 405 l-248
0 0 -834z m5390 -8195 c462 -720 1097 -1349 1818 -1800 l102 -64 -111 -71
c-672 -429 -1238 -970 -1679 -1602 -58 -83 -132 -195 -166 -248 l-60 -97 -75
118 c-228 360 -480 675 -797 997 -308 311 -627 570 -1005 813 -72 46 -133 85
-134 87 -2 1 52 38 120 81 567 364 1072 821 1473 1335 112 142 258 350 349
494 58 92 71 106 80 92 5 -10 44 -70 85 -135z"/>
</g>
</svg>
