{
	"metadata": {
		"version": 4.5,
		"type": "Object",
		"generator": "Object3D.toJSON"
	},
	"geometries": [
		{
			"uuid": "1A8CD452-BE19-4DF2-B5B2-B0FBDCCEA867",
			"type": "BoxBufferGeometry",
			"name": "Reciever base geometry",
			"width": 1,
			"height": 1,
			"depth": 1,
			"widthSegments": 1,
			"heightSegments": 1,
			"depthSegments": 1
		},
		{
			"uuid": "B7619E8F-E3DC-4D63-A9FE-FDF9B2D7D043",
			"type": "BoxBufferGeometry",
			"name": "Reciever part geometry",
			"width": 1,
			"height": 1,
			"depth": 1,
			"widthSegments": 1,
			"heightSegments": 1,
			"depthSegments": 1
		},
		{
			"uuid": "72BA7E32-88A3-44D2-9CFC-90CE02E90A9D",
			"type": "CylinderBufferGeometry",
			"name": "Magazine geometry",
			"radiusTop": 1,
			"radiusBottom": 1,
			"height": 1,
			"radialSegments": 16,
			"heightSegments": 1,
			"openEnded": false
		},
		{
			"uuid": "8224F7EE-094D-4DF5-B61F-70A0D48EDC3F",
			"type": "CylinderBufferGeometry",
			"name": "Barrel geometry",
			"radiusTop": 1,
			"radiusBottom": 1,
			"height": 1,
			"radialSegments": 8,
			"heightSegments": 1,
			"openEnded": false,
			"thetaStart": 0,
			"thetaLength": 6.283185
		},
		{
			"uuid": "31D3F77F-966C-4673-AD8E-0D3B0DF10BCE",
			"type": "BoxBufferGeometry",
			"name": "Grip geometry",
			"width": 1,
			"height": 1,
			"depth": 1,
			"widthSegments": 1,
			"heightSegments": 1,
			"depthSegments": 1
		}],
	"materials": [
		{
			"uuid": "52DC76B6-7A26-43B4-9C2E-0C0C44E0D49A",
			"type": "MeshStandardMaterial",
			"name": "metal",
			"color": 9539469,
			"roughness": 1,
			"metalness": 0,
			"emissive": 0,
			"depthFunc": 3,
			"depthTest": true,
			"depthWrite": true,
			"stencilWrite": false,
			"stencilWriteMask": 255,
			"stencilFunc": 519,
			"stencilRef": 0,
			"stencilFuncMask": 255,
			"stencilFail": 7680,
			"stencilZFail": 7680,
			"stencilZPass": 7680
		},
		{
			"uuid": "7F4FC34A-E869-4A70-BE82-6E250957B818",
			"type": "MeshStandardMaterial",
			"name": "wood",
			"color": 4665380,
			"roughness": 1,
			"metalness": 0,
			"emissive": 0,
			"depthFunc": 3,
			"depthTest": true,
			"depthWrite": true,
			"stencilWrite": false,
			"stencilWriteMask": 255,
			"stencilFunc": 519,
			"stencilRef": 0,
			"stencilFuncMask": 255,
			"stencilFail": 7680,
			"stencilZFail": 7680,
			"stencilZPass": 7680
		}],
	"object": {
		"uuid": "50A72C61-2661-4A66-8563-93A49F27F80D",
		"type": "Group",
		"name": "Tommy",
		"layers": 1,
		"matrix": [1,0,0,0,0,1,0,0,0,0,1,0,0,0,0,1],
		"children": [
			{
				"uuid": "55BC8409-F7EC-4D07-A63A-AD5D9B23C894",
				"type": "Mesh",
				"name": "Reciever base",
				"layers": 1,
				"matrix": [1.2,0,0,0,0,2,0,0,0,0,5,0,0,-0.004785,10.480592,1],
				"geometry": "1A8CD452-BE19-4DF2-B5B2-B0FBDCCEA867",
				"material": "52DC76B6-7A26-43B4-9C2E-0C0C44E0D49A"
			},
			{
				"uuid": "9839C312-3572-450A-8359-9A9A716AC0A9",
				"type": "Mesh",
				"name": "Reciever part",
				"layers": 1,
				"matrix": [1,0,0,0,0,1,0,0,0,0,5,0,-0.0048,0.765651,7.655949,1],
				"geometry": "B7619E8F-E3DC-4D63-A9FE-FDF9B2D7D043",
				"material": "52DC76B6-7A26-43B4-9C2E-0C0C44E0D49A"
			},
			{
				"uuid": "3D794E90-5FE9-4CBF-8094-D72F688FF124",
				"type": "Mesh",
				"name": "Magazine",
				"layers": 1,
				"matrix": [3,0,0,0,0,0,1,0,0,-3,0,0,0,-1.806948,7.143432,1],
				"geometry": "72BA7E32-88A3-44D2-9CFC-90CE02E90A9D",
				"material": "52DC76B6-7A26-43B4-9C2E-0C0C44E0D49A"
			},
			{
				"uuid": "F1BCFFEF-2D1A-4B63-8EB1-4E0B6FFC505F",
				"type": "Mesh",
				"name": "Barrel",
				"layers": 1,
				"matrix": [0.4,0,0,0,0,0,12,0,0,-0.4,0,0,0,0.601527,-0.539888,1],
				"geometry": "8224F7EE-094D-4DF5-B61F-70A0D48EDC3F",
				"material": "52DC76B6-7A26-43B4-9C2E-0C0C44E0D49A"
			},
			{
				"uuid": "3D3E06A5-FE00-40C2-AE75-EAF034CD7EA8",
				"type": "Mesh",
				"name": "Grip",
				"layers": 1,
				"matrix": [0.8,0,0,0,0,1,0,0,0,0,8,0,0,0.003574,1.557582,1],
				"geometry": "31D3F77F-966C-4673-AD8E-0D3B0DF10BCE",
				"material": "7F4FC34A-E869-4A70-BE82-6E250957B818"
			}]
	}
}