<?xml version="1.0" encoding="UTF-8" standalone="no" ?>
<COLLADA xmlns="http://www.collada.org/2005/11/COLLADASchema" version="1.4.1">
    <asset>
        <contributor>
            <authoring_tool>SketchUp 17.2.2555</authoring_tool>
        </contributor>
        <created>2021-09-02T02:39:48Z</created>
        <modified>2021-09-02T02:39:48Z</modified>
        <unit meter="0.0254" name="inch" />
        <up_axis>Z_UP</up_axis>
    </asset>
    <library_cameras>
        <camera id="ID1" name="skp_camera_Last_Saved_SketchUp_View">
            <optics>
                <technique_common>
                    <perspective>
                        <yfov>35</yfov>
                        <aspect_ratio>0</aspect_ratio>
                        <znear>1</znear>
                        <zfar>1000</zfar>
                    </perspective>
                </technique_common>
            </optics>
        </camera>
    </library_cameras>
    <library_visual_scenes>
        <visual_scene id="ID2">
            <node name="SketchUp">
                <instance_geometry url="#ID37">
                    <bind_material>
                        <technique_common>
                            <instance_material symbol="Material2" target="#ID38">
                                <bind_vertex_input semantic="UVSET0" input_semantic="TEXCOORD" input_set="0" />
                            </instance_material>
                        </technique_common>
                    </bind_material>
                </instance_geometry>
                <instance_geometry url="#ID45">
                    <bind_material>
                        <technique_common>
                            <instance_material symbol="Material2" target="#ID46">
                                <bind_vertex_input semantic="UVSET0" input_semantic="TEXCOORD" input_set="0" />
                            </instance_material>
                        </technique_common>
                    </bind_material>
                </instance_geometry>
                <instance_geometry url="#ID53">
                    <bind_material>
                        <technique_common>
                            <instance_material symbol="Material2" target="#ID38">
                                <bind_vertex_input semantic="UVSET0" input_semantic="TEXCOORD" input_set="0" />
                            </instance_material>
                        </technique_common>
                    </bind_material>
                </instance_geometry>
                <instance_geometry url="#ID59">
                    <bind_material>
                        <technique_common>
                            <instance_material symbol="Material2" target="#ID46">
                                <bind_vertex_input semantic="UVSET0" input_semantic="TEXCOORD" input_set="0" />
                            </instance_material>
                        </technique_common>
                    </bind_material>
                </instance_geometry>
                <instance_geometry url="#ID65">
                    <bind_material>
                        <technique_common>
                            <instance_material symbol="Material2" target="#ID66">
                                <bind_vertex_input semantic="UVSET0" input_semantic="TEXCOORD" input_set="0" />
                            </instance_material>
                        </technique_common>
                    </bind_material>
                </instance_geometry>
                <instance_geometry url="#ID73">
                    <bind_material>
                        <technique_common>
                            <instance_material symbol="Material2" target="#ID66">
                                <bind_vertex_input semantic="UVSET0" input_semantic="TEXCOORD" input_set="0" />
                            </instance_material>
                        </technique_common>
                    </bind_material>
                </instance_geometry>
                <instance_geometry url="#ID79">
                    <bind_material>
                        <technique_common>
                            <instance_material symbol="Material2" target="#ID38">
                                <bind_vertex_input semantic="UVSET0" input_semantic="TEXCOORD" input_set="0" />
                            </instance_material>
                        </technique_common>
                    </bind_material>
                </instance_geometry>
                <instance_geometry url="#ID85">
                    <bind_material>
                        <technique_common>
                            <instance_material symbol="Material2" target="#ID46">
                                <bind_vertex_input semantic="UVSET0" input_semantic="TEXCOORD" input_set="0" />
                            </instance_material>
                        </technique_common>
                    </bind_material>
                </instance_geometry>
                <instance_geometry url="#ID91">
                    <bind_material>
                        <technique_common>
                            <instance_material symbol="Material2" target="#ID38">
                                <bind_vertex_input semantic="UVSET0" input_semantic="TEXCOORD" input_set="0" />
                            </instance_material>
                        </technique_common>
                    </bind_material>
                </instance_geometry>
                <instance_geometry url="#ID97">
                    <bind_material>
                        <technique_common>
                            <instance_material symbol="Material2" target="#ID46">
                                <bind_vertex_input semantic="UVSET0" input_semantic="TEXCOORD" input_set="0" />
                            </instance_material>
                        </technique_common>
                    </bind_material>
                </instance_geometry>
                <instance_geometry url="#ID103">
                    <bind_material>
                        <technique_common>
                            <instance_material symbol="Material2" target="#ID46">
                                <bind_vertex_input semantic="UVSET0" input_semantic="TEXCOORD" input_set="0" />
                            </instance_material>
                        </technique_common>
                    </bind_material>
                </instance_geometry>
                <instance_geometry url="#ID109">
                    <bind_material>
                        <technique_common>
                            <instance_material symbol="Material2" target="#ID38">
                                <bind_vertex_input semantic="UVSET0" input_semantic="TEXCOORD" input_set="0" />
                            </instance_material>
                        </technique_common>
                    </bind_material>
                </instance_geometry>
                <instance_geometry url="#ID115">
                    <bind_material>
                        <technique_common>
                            <instance_material symbol="Material2" target="#ID46">
                                <bind_vertex_input semantic="UVSET0" input_semantic="TEXCOORD" input_set="0" />
                            </instance_material>
                        </technique_common>
                    </bind_material>
                </instance_geometry>
                <instance_geometry url="#ID121">
                    <bind_material>
                        <technique_common>
                            <instance_material symbol="Material2" target="#ID46">
                                <bind_vertex_input semantic="UVSET0" input_semantic="TEXCOORD" input_set="0" />
                            </instance_material>
                        </technique_common>
                    </bind_material>
                </instance_geometry>
                <instance_geometry url="#ID127">
                    <bind_material>
                        <technique_common>
                            <instance_material symbol="Material2" target="#ID46">
                                <bind_vertex_input semantic="UVSET0" input_semantic="TEXCOORD" input_set="0" />
                            </instance_material>
                        </technique_common>
                    </bind_material>
                </instance_geometry>
                <instance_geometry url="#ID133">
                    <bind_material>
                        <technique_common>
                            <instance_material symbol="Material2" target="#ID134">
                                <bind_vertex_input semantic="UVSET0" input_semantic="TEXCOORD" input_set="0" />
                            </instance_material>
                        </technique_common>
                    </bind_material>
                </instance_geometry>
                <instance_geometry url="#ID141">
                    <bind_material>
                        <technique_common>
                            <instance_material symbol="Material2" target="#ID134">
                                <bind_vertex_input semantic="UVSET0" input_semantic="TEXCOORD" input_set="0" />
                            </instance_material>
                        </technique_common>
                    </bind_material>
                </instance_geometry>
                <instance_geometry url="#ID147">
                    <bind_material>
                        <technique_common>
                            <instance_material symbol="Material2" target="#ID38">
                                <bind_vertex_input semantic="UVSET0" input_semantic="TEXCOORD" input_set="0" />
                            </instance_material>
                        </technique_common>
                    </bind_material>
                </instance_geometry>
                <instance_geometry url="#ID153">
                    <bind_material>
                        <technique_common>
                            <instance_material symbol="Material2" target="#ID46">
                                <bind_vertex_input semantic="UVSET0" input_semantic="TEXCOORD" input_set="0" />
                            </instance_material>
                        </technique_common>
                    </bind_material>
                </instance_geometry>
                <instance_geometry url="#ID159">
                    <bind_material>
                        <technique_common>
                            <instance_material symbol="Material2" target="#ID46">
                                <bind_vertex_input semantic="UVSET0" input_semantic="TEXCOORD" input_set="0" />
                            </instance_material>
                        </technique_common>
                    </bind_material>
                </instance_geometry>
                <node name="skp_camera_Last_Saved_SketchUp_View">
                    <matrix>0.7966211 0.4981728 -0.3423719 -191.1901 -0.6044789 0.6565242 -0.4511998 -261.3012 0 0.5663919 0.8241361 639.2634 0 0 0 1</matrix>
                    <instance_camera url="#ID1" />
                </node>
                <node id="ID3" name="instance_0">
                    <matrix>1 0 0 1.124568 0 1 0 13.60824 0 0 1 29.48909 0 0 0 1</matrix>
                    <instance_node url="#ID4" />
                </node>
            </node>
        </visual_scene>
    </library_visual_scenes>
    <library_nodes>
        <node id="ID4" name="scrap">
            <instance_geometry url="#ID5">
                <bind_material>
                    <technique_common>
                        <instance_material symbol="Material2" target="#ID6">
                            <bind_vertex_input semantic="UVSET0" input_semantic="TEXCOORD" input_set="0" />
                        </instance_material>
                    </technique_common>
                </bind_material>
            </instance_geometry>
            <instance_geometry url="#ID13">
                <bind_material>
                    <technique_common>
                        <instance_material symbol="Material2" target="#ID6">
                            <bind_vertex_input semantic="UVSET0" input_semantic="TEXCOORD" input_set="0" />
                        </instance_material>
                    </technique_common>
                </bind_material>
            </instance_geometry>
            <instance_geometry url="#ID19">
                <bind_material>
                    <technique_common>
                        <instance_material symbol="Material2" target="#ID6">
                            <bind_vertex_input semantic="UVSET0" input_semantic="TEXCOORD" input_set="0" />
                        </instance_material>
                    </technique_common>
                </bind_material>
            </instance_geometry>
            <instance_geometry url="#ID25">
                <bind_material>
                    <technique_common>
                        <instance_material symbol="Material2" target="#ID6">
                            <bind_vertex_input semantic="UVSET0" input_semantic="TEXCOORD" input_set="0" />
                        </instance_material>
                    </technique_common>
                </bind_material>
            </instance_geometry>
            <instance_geometry url="#ID31">
                <bind_material>
                    <technique_common>
                        <instance_material symbol="Material2" target="#ID6">
                            <bind_vertex_input semantic="UVSET0" input_semantic="TEXCOORD" input_set="0" />
                        </instance_material>
                    </technique_common>
                </bind_material>
            </instance_geometry>
        </node>
    </library_nodes>
    <library_geometries>
        <geometry id="ID5">
            <mesh>
                <source id="ID8">
                    <float_array id="ID11" count="144">34.35142 21.82033 0.7426872 32.79298 24.51962 2.80062 34.50427 21.55559 1.883545 32.64014 24.78436 1.659763 32.64014 24.78436 1.659763 34.35142 21.82033 0.7426872 32.79298 24.51962 2.80062 34.50427 21.55559 1.883545 32.64014 24.78436 1.659763 1.960709 3.11954 0.7426872 0.2494229 6.083574 1.659763 34.35142 21.82033 0.7426872 34.35142 21.82033 0.7426872 32.64014 24.78436 1.659763 1.960709 3.11954 0.7426872 0.2494229 6.083574 1.659763 0.2494229 6.083574 1.659763 32.79298 24.51962 2.80062 32.64014 24.78436 1.659763 0.4022688 5.818837 2.80062 0.4022688 5.818837 2.80062 0.2494229 6.083574 1.659763 32.79298 24.51962 2.80062 32.64014 24.78436 1.659763 2.113555 2.854803 1.883545 32.79298 24.51962 2.80062 0.4022688 5.818837 2.80062 34.50427 21.55559 1.883545 34.50427 21.55559 1.883545 2.113555 2.854803 1.883545 32.79298 24.51962 2.80062 0.4022688 5.818837 2.80062 34.50427 21.55559 1.883545 1.960709 3.11954 0.7426872 34.35142 21.82033 0.7426872 2.113555 2.854803 1.883545 2.113555 2.854803 1.883545 34.50427 21.55559 1.883545 1.960709 3.11954 0.7426872 34.35142 21.82033 0.7426872 0.4022688 5.818837 2.80062 1.960709 3.11954 0.7426872 2.113555 2.854803 1.883545 0.2494229 6.083574 1.659763 0.2494229 6.083574 1.659763 0.4022688 5.818837 2.80062 1.960709 3.11954 0.7426872 2.113555 2.854803 1.883545</float_array>
                    <technique_common>
                        <accessor count="48" source="#ID11" stride="3">
                            <param name="X" type="float" />
                            <param name="Y" type="float" />
                            <param name="Z" type="float" />
                        </accessor>
                    </technique_common>
                </source>
                <source id="ID9">
                    <float_array id="ID12" count="144">0.8660254 0.5 -1.526557e-16 0.8660254 0.5 -1.526557e-16 0.8660254 0.5 -1.526557e-16 0.8660254 0.5 -1.526557e-16 -0.8660254 -0.5 1.526557e-16 -0.8660254 -0.5 1.526557e-16 -0.8660254 -0.5 1.526557e-16 -0.8660254 -0.5 1.526557e-16 -0.1294095 0.2241439 -0.9659258 -0.1294095 0.2241439 -0.9659258 -0.1294095 0.2241439 -0.9659258 -0.1294095 0.2241439 -0.9659258 0.1294095 -0.2241439 0.9659258 0.1294095 -0.2241439 0.9659258 0.1294095 -0.2241439 0.9659258 0.1294095 -0.2241439 0.9659258 -0.4829629 0.8365163 0.258819 -0.4829629 0.8365163 0.258819 -0.4829629 0.8365163 0.258819 -0.4829629 0.8365163 0.258819 0.4829629 -0.8365163 -0.258819 0.4829629 -0.8365163 -0.258819 0.4829629 -0.8365163 -0.258819 0.4829629 -0.8365163 -0.258819 0.1294095 -0.2241439 0.9659258 0.1294095 -0.2241439 0.9659258 0.1294095 -0.2241439 0.9659258 0.1294095 -0.2241439 0.9659258 -0.1294095 0.2241439 -0.9659258 -0.1294095 0.2241439 -0.9659258 -0.1294095 0.2241439 -0.9659258 -0.1294095 0.2241439 -0.9659258 0.4829629 -0.8365163 -0.258819 0.4829629 -0.8365163 -0.258819 0.4829629 -0.8365163 -0.258819 0.4829629 -0.8365163 -0.258819 -0.4829629 0.8365163 0.258819 -0.4829629 0.8365163 0.258819 -0.4829629 0.8365163 0.258819 -0.4829629 0.8365163 0.258819 -0.8660254 -0.5 1.526557e-16 -0.8660254 -0.5 1.526557e-16 -0.8660254 -0.5 1.526557e-16 -0.8660254 -0.5 1.526557e-16 0.8660254 0.5 -1.526557e-16 0.8660254 0.5 -1.526557e-16 0.8660254 0.5 -1.526557e-16 0.8660254 0.5 -1.526557e-16</float_array>
                    <technique_common>
                        <accessor count="48" source="#ID12" stride="3">
                            <param name="X" type="float" />
                            <param name="Y" type="float" />
                            <param name="Z" type="float" />
                        </accessor>
                    </technique_common>
                </source>
                <vertices id="ID10">
                    <input semantic="POSITION" source="#ID8" />
                    <input semantic="NORMAL" source="#ID9" />
                </vertices>
                <triangles count="24" material="Material2">
                    <input offset="0" semantic="VERTEX" source="#ID10" />
                    <p>0 1 2 1 0 3 4 5 6 7 6 5 8 9 10 9 8 11 12 13 14 15 14 13 16 17 18 17 16 19 20 21 22 23 22 21 24 25 26 25 24 27 28 29 30 31 30 29 32 33 34 33 32 35 36 37 38 39 38 37 40 41 42 41 40 43 44 45 46 47 46 45</p>
                </triangles>
            </mesh>
        </geometry>
        <geometry id="ID13">
            <mesh>
                <source id="ID14">
                    <float_array id="ID17" count="144">30.86054 0.2370786 0 2.001852 24.29136 0 0 21.36773 0 32.8624 3.160709 0 32.8624 3.160709 0 30.86054 0.2370786 0 2.001852 24.29136 0 0 21.36773 0 30.86054 0.2370786 1.181102 0 21.36773 0 30.86054 0.2370786 0 0 21.36773 1.181102 0 21.36773 1.181102 30.86054 0.2370786 1.181102 0 21.36773 0 30.86054 0.2370786 0 32.8624 3.160709 0 30.86054 0.2370786 1.181102 30.86054 0.2370786 0 32.8624 3.160709 1.181102 32.8624 3.160709 1.181102 32.8624 3.160709 0 30.86054 0.2370786 1.181102 30.86054 0.2370786 0 2.001852 24.29136 1.181102 32.8624 3.160709 0 2.001852 24.29136 0 32.8624 3.160709 1.181102 32.8624 3.160709 1.181102 2.001852 24.29136 1.181102 32.8624 3.160709 0 2.001852 24.29136 0 2.001852 24.29136 1.181102 0 21.36773 0 0 21.36773 1.181102 2.001852 24.29136 0 2.001852 24.29136 0 2.001852 24.29136 1.181102 0 21.36773 0 0 21.36773 1.181102 30.86054 0.2370786 1.181102 2.001852 24.29136 1.181102 0 21.36773 1.181102 32.8624 3.160709 1.181102 32.8624 3.160709 1.181102 30.86054 0.2370786 1.181102 2.001852 24.29136 1.181102 0 21.36773 1.181102</float_array>
                    <technique_common>
                        <accessor count="48" source="#ID17" stride="3">
                            <param name="X" type="float" />
                            <param name="Y" type="float" />
                            <param name="Z" type="float" />
                        </accessor>
                    </technique_common>
                </source>
                <source id="ID15">
                    <float_array id="ID18" count="144">0 0 1 0 0 1 0 0 1 0 0 1 -0 -0 -1 -0 -0 -1 -0 -0 -1 -0 -0 -1 -0.564967 -0.8251135 0 -0.564967 -0.8251135 0 -0.564967 -0.8251135 0 -0.564967 -0.8251135 0 0.564967 0.8251135 -0 0.564967 0.8251135 -0 0.564967 0.8251135 -0 0.564967 0.8251135 -0 0.8251135 -0.564967 0 0.8251135 -0.564967 0 0.8251135 -0.564967 0 0.8251135 -0.564967 0 -0.8251135 0.564967 -0 -0.8251135 0.564967 -0 -0.8251135 0.564967 -0 -0.8251135 0.564967 -0 0.564967 0.8251135 0 0.564967 0.8251135 0 0.564967 0.8251135 0 0.564967 0.8251135 0 -0.564967 -0.8251135 -0 -0.564967 -0.8251135 -0 -0.564967 -0.8251135 -0 -0.564967 -0.8251135 -0 -0.8251135 0.564967 0 -0.8251135 0.564967 0 -0.8251135 0.564967 0 -0.8251135 0.564967 0 0.8251135 -0.564967 -0 0.8251135 -0.564967 -0 0.8251135 -0.564967 -0 0.8251135 -0.564967 -0 0 0 1 0 0 1 0 0 1 0 0 1 -0 -0 -1 -0 -0 -1 -0 -0 -1 -0 -0 -1</float_array>
                    <technique_common>
                        <accessor count="48" source="#ID18" stride="3">
                            <param name="X" type="float" />
                            <param name="Y" type="float" />
                            <param name="Z" type="float" />
                        </accessor>
                    </technique_common>
                </source>
                <vertices id="ID16">
                    <input semantic="POSITION" source="#ID14" />
                    <input semantic="NORMAL" source="#ID15" />
                </vertices>
                <triangles count="24" material="Material2">
                    <input offset="0" semantic="VERTEX" source="#ID16" />
                    <p>0 1 2 1 0 3 4 5 6 7 6 5 8 9 10 9 8 11 12 13 14 15 14 13 16 17 18 17 16 19 20 21 22 23 22 21 24 25 26 25 24 27 28 29 30 31 30 29 32 33 34 33 32 35 36 37 38 39 38 37 40 41 42 41 40 43 44 45 46 47 46 45</p>
                </triangles>
            </mesh>
        </geometry>
        <geometry id="ID19">
            <mesh>
                <source id="ID20">
                    <float_array id="ID23" count="144">42.10291 17.0087 1.014442 5.687122 9.401047 5.050127 41.94201 16.97509 -0.1551662 5.848026 9.434662 6.219735 5.848026 9.434662 6.219735 42.10291 17.0087 1.014442 5.687122 9.401047 5.050127 41.94201 16.97509 -0.1551662 41.21741 20.44351 -0.1551662 5.687122 9.401047 5.050127 4.96253 12.86947 5.050127 41.94201 16.97509 -0.1551662 41.94201 16.97509 -0.1551662 41.21741 20.44351 -0.1551662 5.687122 9.401047 5.050127 4.96253 12.86947 5.050127 41.21741 20.44351 -0.1551662 42.10291 17.0087 1.014442 41.94201 16.97509 -0.1551662 41.37832 20.47713 1.014442 41.37832 20.47713 1.014442 41.21741 20.44351 -0.1551662 42.10291 17.0087 1.014442 41.94201 16.97509 -0.1551662 5.848026 9.434662 6.219735 41.37832 20.47713 1.014442 5.123433 12.90309 6.219735 42.10291 17.0087 1.014442 42.10291 17.0087 1.014442 5.848026 9.434662 6.219735 41.37832 20.47713 1.014442 5.123433 12.90309 6.219735 5.848026 9.434662 6.219735 4.96253 12.86947 5.050127 5.687122 9.401047 5.050127 5.123433 12.90309 6.219735 5.123433 12.90309 6.219735 5.848026 9.434662 6.219735 4.96253 12.86947 5.050127 5.687122 9.401047 5.050127 4.96253 12.86947 5.050127 41.37832 20.47713 1.014442 41.21741 20.44351 -0.1551662 5.123433 12.90309 6.219735 5.123433 12.90309 6.219735 4.96253 12.86947 5.050127 41.37832 20.47713 1.014442 41.21741 20.44351 -0.1551662</float_array>
                    <technique_common>
                        <accessor count="48" source="#ID23" stride="3">
                            <param name="X" type="float" />
                            <param name="Y" type="float" />
                            <param name="Z" type="float" />
                        </accessor>
                    </technique_common>
                </source>
                <source id="ID21">
                    <float_array id="ID24" count="144">0.2044961 -0.9788674 1.422473e-16 0.2044961 -0.9788674 1.422473e-16 0.2044961 -0.9788674 1.422473e-16 0.2044961 -0.9788674 1.422473e-16 -0.2044961 0.9788674 -1.422473e-16 -0.2044961 0.9788674 -1.422473e-16 -0.2044961 0.9788674 -1.422473e-16 -0.2044961 0.9788674 -1.422473e-16 -0.136232 -0.02846035 -0.9902681 -0.136232 -0.02846035 -0.9902681 -0.136232 -0.02846035 -0.9902681 -0.136232 -0.02846035 -0.9902681 0.136232 0.02846035 0.9902681 0.136232 0.02846035 0.9902681 0.136232 0.02846035 0.9902681 0.136232 0.02846035 0.9902681 0.9693411 0.2025059 -0.1391731 0.9693411 0.2025059 -0.1391731 0.9693411 0.2025059 -0.1391731 0.9693411 0.2025059 -0.1391731 -0.9693411 -0.2025059 0.1391731 -0.9693411 -0.2025059 0.1391731 -0.9693411 -0.2025059 0.1391731 -0.9693411 -0.2025059 0.1391731 0.136232 0.02846035 0.9902681 0.136232 0.02846035 0.9902681 0.136232 0.02846035 0.9902681 0.136232 0.02846035 0.9902681 -0.136232 -0.02846035 -0.9902681 -0.136232 -0.02846035 -0.9902681 -0.136232 -0.02846035 -0.9902681 -0.136232 -0.02846035 -0.9902681 -0.9693411 -0.2025059 0.1391731 -0.9693411 -0.2025059 0.1391731 -0.9693411 -0.2025059 0.1391731 -0.9693411 -0.2025059 0.1391731 0.9693411 0.2025059 -0.1391731 0.9693411 0.2025059 -0.1391731 0.9693411 0.2025059 -0.1391731 0.9693411 0.2025059 -0.1391731 -0.2044961 0.9788674 -1.422473e-16 -0.2044961 0.9788674 -1.422473e-16 -0.2044961 0.9788674 -1.422473e-16 -0.2044961 0.9788674 -1.422473e-16 0.2044961 -0.9788674 1.422473e-16 0.2044961 -0.9788674 1.422473e-16 0.2044961 -0.9788674 1.422473e-16 0.2044961 -0.9788674 1.422473e-16</float_array>
                    <technique_common>
                        <accessor count="48" source="#ID24" stride="3">
                            <param name="X" type="float" />
                            <param name="Y" type="float" />
                            <param name="Z" type="float" />
                        </accessor>
                    </technique_common>
                </source>
                <vertices id="ID22">
                    <input semantic="POSITION" source="#ID20" />
                    <input semantic="NORMAL" source="#ID21" />
                </vertices>
                <triangles count="24" material="Material2">
                    <input offset="0" semantic="VERTEX" source="#ID22" />
                    <p>0 1 2 1 0 3 4 5 6 7 6 5 8 9 10 9 8 11 12 13 14 15 14 13 16 17 18 17 16 19 20 21 22 23 22 21 24 25 26 25 24 27 28 29 30 31 30 29 32 33 34 33 32 35 36 37 38 39 38 37 40 41 42 41 40 43 44 45 46 47 46 45</p>
                </triangles>
            </mesh>
        </geometry>
        <geometry id="ID25">
            <mesh>
                <source id="ID26">
                    <float_array id="ID29" count="144">37.09172 0 0 10.07222 26.10325 0 7.861624 23.33408 0 39.30232 2.769167 0 39.30232 2.769167 0 37.09172 0 0 10.07222 26.10325 0 7.861624 23.33408 0 10.07222 26.10325 1.181102 39.30232 2.769167 0 10.07222 26.10325 0 39.30232 2.769167 1.181102 39.30232 2.769167 1.181102 10.07222 26.10325 1.181102 39.30232 2.769167 0 10.07222 26.10325 0 10.07222 26.10325 1.181102 7.861624 23.33408 0 7.861624 23.33408 1.181102 10.07222 26.10325 0 10.07222 26.10325 0 10.07222 26.10325 1.181102 7.861624 23.33408 0 7.861624 23.33408 1.181102 37.09172 0 1.181102 7.861624 23.33408 0 37.09172 0 0 7.861624 23.33408 1.181102 7.861624 23.33408 1.181102 37.09172 0 1.181102 7.861624 23.33408 0 37.09172 0 0 39.30232 2.769167 0 37.09172 0 1.181102 37.09172 0 0 39.30232 2.769167 1.181102 39.30232 2.769167 1.181102 39.30232 2.769167 0 37.09172 0 1.181102 37.09172 0 0 37.09172 0 1.181102 10.07222 26.10325 1.181102 7.861624 23.33408 1.181102 39.30232 2.769167 1.181102 39.30232 2.769167 1.181102 37.09172 0 1.181102 10.07222 26.10325 1.181102 7.861624 23.33408 1.181102</float_array>
                    <technique_common>
                        <accessor count="48" source="#ID29" stride="3">
                            <param name="X" type="float" />
                            <param name="Y" type="float" />
                            <param name="Z" type="float" />
                        </accessor>
                    </technique_common>
                </source>
                <source id="ID27">
                    <float_array id="ID30" count="144">0 0 1 0 0 1 0 0 1 0 0 1 -0 -0 -1 -0 -0 -1 -0 -0 -1 -0 -0 -1 0.6238796 0.7815205 0 0.6238796 0.7815205 0 0.6238796 0.7815205 0 0.6238796 0.7815205 0 -0.6238796 -0.7815205 -0 -0.6238796 -0.7815205 -0 -0.6238796 -0.7815205 -0 -0.6238796 -0.7815205 -0 -0.7815205 0.6238796 0 -0.7815205 0.6238796 0 -0.7815205 0.6238796 0 -0.7815205 0.6238796 0 0.7815205 -0.6238796 -0 0.7815205 -0.6238796 -0 0.7815205 -0.6238796 -0 0.7815205 -0.6238796 -0 -0.6238796 -0.7815205 0 -0.6238796 -0.7815205 0 -0.6238796 -0.7815205 0 -0.6238796 -0.7815205 0 0.6238796 0.7815205 -0 0.6238796 0.7815205 -0 0.6238796 0.7815205 -0 0.6238796 0.7815205 -0 0.7815205 -0.6238796 0 0.7815205 -0.6238796 0 0.7815205 -0.6238796 0 0.7815205 -0.6238796 0 -0.7815205 0.6238796 -0 -0.7815205 0.6238796 -0 -0.7815205 0.6238796 -0 -0.7815205 0.6238796 -0 0 0 1 0 0 1 0 0 1 0 0 1 -0 -0 -1 -0 -0 -1 -0 -0 -1 -0 -0 -1</float_array>
                    <technique_common>
                        <accessor count="48" source="#ID30" stride="3">
                            <param name="X" type="float" />
                            <param name="Y" type="float" />
                            <param name="Z" type="float" />
                        </accessor>
                    </technique_common>
                </source>
                <vertices id="ID28">
                    <input semantic="POSITION" source="#ID26" />
                    <input semantic="NORMAL" source="#ID27" />
                </vertices>
                <triangles count="24" material="Material2">
                    <input offset="0" semantic="VERTEX" source="#ID28" />
                    <p>0 1 2 1 0 3 4 5 6 7 6 5 8 9 10 9 8 11 12 13 14 15 14 13 16 17 18 17 16 19 20 21 22 23 22 21 24 25 26 25 24 27 28 29 30 31 30 29 32 33 34 33 32 35 36 37 38 39 38 37 40 41 42 41 40 43 44 45 46 47 46 45</p>
                </triangles>
            </mesh>
        </geometry>
        <geometry id="ID31">
            <mesh>
                <source id="ID32">
                    <float_array id="ID35" count="144">2.614857 9.520964 6.944895 39.28716 6.233809 -0.5230212 2.370369 6.304409 5.478939 39.53165 9.450364 0.9429345 39.53165 9.450364 0.9429345 2.614857 9.520964 6.944895 39.28716 6.233809 -0.5230212 2.370369 6.304409 5.478939 39.45829 5.738413 0.5354203 2.370369 6.304409 5.478939 39.28716 6.233809 -0.5230212 2.541504 5.809013 6.53738 2.541504 5.809013 6.53738 39.45829 5.738413 0.5354203 2.370369 6.304409 5.478939 39.28716 6.233809 -0.5230212 2.785992 9.025568 8.003336 2.370369 6.304409 5.478939 2.541504 5.809013 6.53738 2.614857 9.520964 6.944895 2.614857 9.520964 6.944895 2.785992 9.025568 8.003336 2.370369 6.304409 5.478939 2.541504 5.809013 6.53738 2.614857 9.520964 6.944895 39.70278 8.954968 2.001376 39.53165 9.450364 0.9429345 2.785992 9.025568 8.003336 2.785992 9.025568 8.003336 2.614857 9.520964 6.944895 39.70278 8.954968 2.001376 39.53165 9.450364 0.9429345 39.28716 6.233809 -0.5230212 39.70278 8.954968 2.001376 39.45829 5.738413 0.5354203 39.53165 9.450364 0.9429345 39.53165 9.450364 0.9429345 39.28716 6.233809 -0.5230212 39.70278 8.954968 2.001376 39.45829 5.738413 0.5354203 39.45829 5.738413 0.5354203 2.785992 9.025568 8.003336 2.541504 5.809013 6.53738 39.70278 8.954968 2.001376 39.70278 8.954968 2.001376 39.45829 5.738413 0.5354203 2.785992 9.025568 8.003336 2.541504 5.809013 6.53738</float_array>
                    <technique_common>
                        <accessor count="48" source="#ID35" stride="3">
                            <param name="X" type="float" />
                            <param name="Y" type="float" />
                            <param name="Z" type="float" />
                        </accessor>
                    </technique_common>
                </source>
                <source id="ID33">
                    <float_array id="ID36" count="144">-0.1448942 0.4194354 -0.8961471 -0.1448942 0.4194354 -0.8961471 -0.1448942 0.4194354 -0.8961471 -0.1448942 0.4194354 -0.8961471 0.1448942 -0.4194354 0.8961471 0.1448942 -0.4194354 0.8961471 0.1448942 -0.4194354 0.8961471 0.1448942 -0.4194354 0.8961471 -0.06899983 -0.9077832 -0.4137253 -0.06899983 -0.9077832 -0.4137253 -0.06899983 -0.9077832 -0.4137253 -0.06899983 -0.9077832 -0.4137253 0.06899983 0.9077832 0.4137253 0.06899983 0.9077832 0.4137253 0.06899983 0.9077832 0.4137253 0.06899983 0.9077832 0.4137253 -0.9870384 0.001887621 0.1604735 -0.9870384 0.001887621 0.1604735 -0.9870384 0.001887621 0.1604735 -0.9870384 0.001887621 0.1604735 0.9870384 -0.001887621 -0.1604735 0.9870384 -0.001887621 -0.1604735 0.9870384 -0.001887621 -0.1604735 0.9870384 -0.001887621 -0.1604735 0.06899983 0.9077832 0.4137253 0.06899983 0.9077832 0.4137253 0.06899983 0.9077832 0.4137253 0.06899983 0.9077832 0.4137253 -0.06899983 -0.9077832 -0.4137253 -0.06899983 -0.9077832 -0.4137253 -0.06899983 -0.9077832 -0.4137253 -0.06899983 -0.9077832 -0.4137253 0.9870384 -0.001887621 -0.1604735 0.9870384 -0.001887621 -0.1604735 0.9870384 -0.001887621 -0.1604735 0.9870384 -0.001887621 -0.1604735 -0.9870384 0.001887621 0.1604735 -0.9870384 0.001887621 0.1604735 -0.9870384 0.001887621 0.1604735 -0.9870384 0.001887621 0.1604735 0.1448942 -0.4194354 0.8961471 0.1448942 -0.4194354 0.8961471 0.1448942 -0.4194354 0.8961471 0.1448942 -0.4194354 0.8961471 -0.1448942 0.4194354 -0.8961471 -0.1448942 0.4194354 -0.8961471 -0.1448942 0.4194354 -0.8961471 -0.1448942 0.4194354 -0.8961471</float_array>
                    <technique_common>
                        <accessor count="48" source="#ID36" stride="3">
                            <param name="X" type="float" />
                            <param name="Y" type="float" />
                            <param name="Z" type="float" />
                        </accessor>
                    </technique_common>
                </source>
                <vertices id="ID34">
                    <input semantic="POSITION" source="#ID32" />
                    <input semantic="NORMAL" source="#ID33" />
                </vertices>
                <triangles count="24" material="Material2">
                    <input offset="0" semantic="VERTEX" source="#ID34" />
                    <p>0 1 2 1 0 3 4 5 6 7 6 5 8 9 10 9 8 11 12 13 14 15 14 13 16 17 18 17 16 19 20 21 22 23 22 21 24 25 26 25 24 27 28 29 30 31 30 29 32 33 34 33 32 35 36 37 38 39 38 37 40 41 42 41 40 43 44 45 46 47 46 45</p>
                </triangles>
            </mesh>
        </geometry>
        <geometry id="ID37">
            <mesh>
                <source id="ID40">
                    <float_array id="ID43" count="318">111.4173 0 85.43307 55.90551 55.51181 85.43307 55.90551 0 85.43307 111.4173 55.51181 85.43307 111.4173 5.511044 85.43307 55.90551 55.51181 85.43307 111.4173 55.51181 65.35433 55.90551 55.51181 65.35433 111.4173 55.51181 85.43307 55.90551 55.51181 85.43307 55.90551 0 65.35433 55.90551 0 85.43307 55.90551 55.51181 65.35433 64.94465 3.552714e-15 80.98264 64.8919 0 75.19685 64.94465 3.552714e-15 68.38421 64.77825 -2.567391e-16 75.3937 64.55095 0 75.7874 111.4173 0 65.35433 102.3462 0 68.38421 55.90551 0 65.35433 111.4173 0 85.43307 103.0809 0 75.19685 102.9672 -2.567391e-16 75.3937 102.7399 0 75.7874 102.3462 0 80.98264 55.90551 0 85.43307 64.20999 0 75.19685 64.32365 -2.359224e-16 75.3937 102.399 0 75.19685 102.5126 -2.359224e-16 75.3937 111.4173 5.511044 65.35433 111.4173 0 85.43307 111.4173 0 65.35433 111.4173 5.511044 85.43307 111.4173 55.51181 65.35433 111.4173 55.51181 85.43307 55.90551 55.51181 65.35433 104.3511 48.44555 52.55992 62.97177 48.44555 52.55992 111.4173 55.51181 65.35433 55.90551 55.51181 65.35433 62.97177 7.066258 52.55992 55.90551 0 65.35433 62.97177 48.44555 52.55992 111.4173 0 65.35433 62.97177 7.066258 52.55992 104.3511 7.066258 52.55992 55.90551 0 65.35433 104.3511 7.066258 52.55992 111.4173 5.511044 65.35433 111.4173 0 65.35433 111.4173 55.51181 65.35433 104.3511 48.44555 52.55992 62.97177 48.44555 52.55992 104.3511 48.44555 17.32283 62.97177 48.44555 17.32283 104.3511 48.44555 52.55992 62.97177 7.066258 52.55992 62.97177 13.07718 50.23195 62.97177 7.066258 17.32283 62.97177 48.44555 52.55992 62.97177 41.42364 50.23195 62.97177 41.42364 41.96423 62.97177 41.42364 29.48909 62.97177 41.42364 25.94578 62.97177 13.07718 25.94578 62.97177 48.44555 17.32283 62.97177 13.07718 41.96423 62.97177 13.07718 29.48909 104.3511 7.066258 17.32283 103.1336 7.066258 45.35717 62.97177 7.066258 17.32283 104.3511 7.066258 52.55992 103.1336 7.066258 48.11307 64.55095 7.066258 48.11307 64.55095 7.066258 45.35717 62.97177 7.066258 52.55992 104.3511 48.44555 17.32283 104.3511 7.066258 52.55992 104.3511 7.066258 17.32283 104.3511 48.44555 52.55992 104.3511 7.066258 52.55992 62.97177 48.44555 52.55992 62.97177 7.066258 52.55992 104.3511 48.44555 52.55992 62.97177 48.44555 17.32283 63.75169 47.35914 17.32283 62.97177 7.066258 17.32283 104.3511 48.44555 17.32283 66.11389 47.35914 17.32283 66.11389 44.99694 17.32283 101.1533 47.35914 17.32283 66.11389 10.35127 17.32283 66.11389 7.989065 17.32283 103.5155 47.35914 17.32283 103.5155 44.99694 17.32283 103.5155 10.35127 17.32283 103.5155 7.989065 17.32283 63.75169 7.989065 17.32283 104.3511 7.066258 17.32283 63.75169 44.99694 17.32283 63.75169 10.35127 17.32283 101.1533 7.989065 17.32283 101.1533 44.99694 17.32283 101.1533 10.35127 17.32283</float_array>
                    <technique_common>
                        <accessor count="106" source="#ID43" stride="3">
                            <param name="X" type="float" />
                            <param name="Y" type="float" />
                            <param name="Z" type="float" />
                        </accessor>
                    </technique_common>
                </source>
                <source id="ID41">
                    <float_array id="ID44" count="318">-7.708063e-17 6.177597e-17 1 -7.708063e-17 6.177597e-17 1 -7.708063e-17 6.177597e-17 1 -7.708063e-17 6.177597e-17 1 -7.708063e-17 6.177597e-17 1 -0 1 -0 -0 1 -0 -0 1 -0 -0 1 -0 -1 0 0 -1 0 0 -1 0 0 -1 0 0 0 -1 0 0 -1 0 0 -1 0 0 -1 0 0 -1 0 0 -1 0 0 -1 0 0 -1 0 0 -1 0 0 -1 0 0 -1 0 0 -1 0 0 -1 0 0 -1 0 0 -1 0 0 -1 0 0 -1 0 0 -1 0 1 -0 -0 1 -0 -0 1 -0 -0 1 -0 -0 1 -0 -0 1 -0 -0 -0 0.8753671 -0.4834588 -0 0.8753671 -0.4834588 -0 0.8753671 -0.4834588 -0 0.8753671 -0.4834588 -0.8753671 0 -0.4834588 -0.8753671 0 -0.4834588 -0.8753671 0 -0.4834588 -0.8753671 0 -0.4834588 0 -0.8753671 -0.4834588 0 -0.8753671 -0.4834588 0 -0.8753671 -0.4834588 0 -0.8753671 -0.4834588 0.8753671 5.945338e-18 -0.4834588 0.8753671 5.945338e-18 -0.4834588 0.8753671 5.945338e-18 -0.4834588 0.8753671 5.945338e-18 -0.4834588 0.8753671 5.945338e-18 -0.4834588 -0 1 -0 -0 1 -0 -0 1 -0 -0 1 -0 -1 0 0 -1 0 0 -1 0 0 -1 0 0 -1 0 0 -1 0 0 -1 0 0 -1 0 0 -1 0 0 -1 0 0 -1 0 0 -1 0 0 0 -1 0 0 -1 0 0 -1 0 0 -1 0 0 -1 0 0 -1 0 0 -1 0 0 -1 0 1 -0 -0 1 -0 -0 1 -0 -0 1 -0 -0 -0 -0 1 -0 -0 1 -0 -0 1 -0 -0 1 0 0 -1 0 0 -1 0 0 -1 0 0 -1 0 0 -1 0 0 -1 0 0 -1 0 0 -1 0 0 -1 0 0 -1 0 0 -1 0 0 -1 0 0 -1 0 0 -1 0 0 -1 0 0 -1 0 0 -1 0 0 -1 0 0 -1 0 0 -1</float_array>
                    <technique_common>
                        <accessor count="106" source="#ID44" stride="3">
                            <param name="X" type="float" />
                            <param name="Y" type="float" />
                            <param name="Z" type="float" />
                        </accessor>
                    </technique_common>
                </source>
                <vertices id="ID42">
                    <input semantic="POSITION" source="#ID40" />
                    <input semantic="NORMAL" source="#ID41" />
                </vertices>
                <triangles count="94" material="Material2">
                    <input offset="0" semantic="VERTEX" source="#ID42" />
                    <p>0 1 2 1 0 3 3 0 4 5 6 7 6 5 8 9 10 11 10 9 12 13 14 15 14 13 16 16 13 17 18 19 20 19 18 21 19 21 22 22 21 23 23 21 24 24 21 25 25 21 13 20 15 26 15 20 19 26 15 27 27 15 14 26 27 28 26 28 17 26 17 13 26 13 21 19 29 25 29 19 22 25 29 30 25 30 24 31 32 33 32 31 34 35 34 31 34 35 36 37 38 39 38 37 40 41 42 43 42 41 44 45 46 47 46 45 48 49 50 51 50 49 52 52 49 53 54 55 56 55 54 57 58 59 60 59 58 61 59 61 62 62 61 63 63 61 64 64 61 65 60 66 67 66 60 59 66 59 68 66 68 69 67 66 65 67 65 61 70 71 72 71 70 73 71 73 74 74 73 75 72 76 77 76 72 71 77 76 75 77 75 73 78 79 80 79 78 81 82 83 84 83 82 85 86 87 88 87 86 89 87 89 90 90 89 91 91 89 92 91 92 93 93 92 94 92 89 95 95 89 96 96 89 97 97 89 98 88 99 100 99 88 87 99 87 101 99 101 102 100 99 94 100 94 103 103 94 92 103 92 104 103 104 105 100 103 98 100 98 89 96 105 104 105 96 97 91 102 101 102 91 93</p>
                </triangles>
            </mesh>
        </geometry>
        <geometry id="ID45">
            <mesh>
                <source id="ID48">
                    <float_array id="ID51" count="147">1.771654 13.07718 29.48909 31.98511 13.84532 29.48909 1.771654 34.5329 29.48909 38.21629 13.60824 29.48909 62.97177 13.07718 29.48909 33.98696 16.76895 29.48909 40.42688 16.3774 29.48909 3.126419 37.8996 29.48909 1.771654 41.42364 29.48909 1.771654 35.92102 29.48909 11.19679 39.71148 29.48909 62.97177 41.42364 29.48909 8.986191 36.94232 29.48909 77.5387 13.07718 29.48909 77.5387 41.42364 29.48909 8.881784e-16 41.42364 27.71743 62.97177 41.42364 25.94578 1.771654 41.42364 25.94578 62.97177 41.42364 29.48909 1.771654 41.42364 29.48909 1.771654 41.42364 29.48909 8.881784e-16 13.07718 27.71743 1.771654 13.07718 29.48909 8.881784e-16 41.42364 27.71743 62.97177 13.07718 29.48909 1.771654 13.07718 25.94578 62.97177 13.07718 25.94578 8.881784e-16 13.07718 27.71743 1.771654 13.07718 29.48909 77.5387 41.42364 41.96423 77.5387 13.07718 29.48909 77.5387 13.07718 41.96423 77.5387 41.42364 29.48909 1.771654 41.42364 25.94578 2.767023 40.7705 25.94578 1.771654 13.07718 25.94578 62.97177 41.42364 25.94578 5.129228 40.7705 25.94578 5.129228 38.40829 25.94578 5.129228 16.36105 25.94578 5.129228 13.99884 25.94578 2.767023 13.99884 25.94578 62.97177 13.07718 25.94578 2.767023 38.40829 25.94578 2.767023 16.36105 25.94578 1.771654 41.42364 25.94578 8.881784e-16 13.07718 27.71743 8.881784e-16 41.42364 27.71743 1.771654 13.07718 25.94578</float_array>
                    <technique_common>
                        <accessor count="49" source="#ID51" stride="3">
                            <param name="X" type="float" />
                            <param name="Y" type="float" />
                            <param name="Z" type="float" />
                        </accessor>
                    </technique_common>
                </source>
                <source id="ID49">
                    <float_array id="ID52" count="147">-0 -0 1 -0 -0 1 -0 -0 1 -0 -0 1 -0 -0 1 -0 -0 1 -0 -0 1 -0 -0 1 -0 -0 1 -0 -0 1 -0 -0 1 -0 -0 1 -0 -0 1 -0 -0 1 -0 -0 1 -1.11969e-16 1 5.598828e-18 -1.11969e-16 1 5.598828e-18 -1.11969e-16 1 5.598828e-18 -1.11969e-16 1 5.598828e-18 -1.11969e-16 1 5.598828e-18 -0.7071068 1.110728e-32 0.7071068 -0.7071068 1.110728e-32 0.7071068 -0.7071068 1.110728e-32 0.7071068 -0.7071068 1.110728e-32 0.7071068 0 -1 0 0 -1 0 0 -1 0 0 -1 0 0 -1 0 -1 0 0 -1 0 0 -1 0 0 -1 0 0 0 0 -1 0 0 -1 0 0 -1 0 0 -1 0 0 -1 0 0 -1 0 0 -1 0 0 -1 0 0 -1 0 0 -1 0 0 -1 0 0 -1 -0.7071068 8.846883e-34 -0.7071068 -0.7071068 8.846883e-34 -0.7071068 -0.7071068 8.846883e-34 -0.7071068 -0.7071068 8.846883e-34 -0.7071068</float_array>
                    <technique_common>
                        <accessor count="49" source="#ID52" stride="3">
                            <param name="X" type="float" />
                            <param name="Y" type="float" />
                            <param name="Z" type="float" />
                        </accessor>
                    </technique_common>
                </source>
                <vertices id="ID50">
                    <input semantic="POSITION" source="#ID48" />
                    <input semantic="NORMAL" source="#ID49" />
                </vertices>
                <triangles count="41" material="Material2">
                    <input offset="0" semantic="VERTEX" source="#ID50" />
                    <p>0 1 2 1 0 3 3 0 4 1 3 5 3 4 6 7 8 9 8 7 10 8 10 11 10 7 12 11 10 6 11 6 4 11 4 13 11 13 14 5 12 7 12 5 3 15 16 17 16 15 18 18 15 19 20 21 22 21 20 23 24 25 26 25 24 27 27 24 28 29 30 31 30 29 32 33 34 35 34 33 36 34 36 37 37 36 38 38 36 39 39 36 40 35 41 42 41 35 34 41 34 43 41 43 44 42 41 40 42 40 36 38 44 43 44 38 39 45 46 47 46 45 48</p>
                </triangles>
            </mesh>
        </geometry>
        <geometry id="ID53">
            <mesh>
                <source id="ID54">
                    <float_array id="ID57" count="90">62.97177 13.07718 41.96423 77.5387 13.07718 29.48909 62.97177 13.07718 29.48909 77.5387 13.07718 41.96423 62.97177 41.42364 41.96423 57.45996 13.07718 41.96423 57.45996 41.42364 41.96423 62.97177 13.07718 41.96423 77.5387 41.42364 41.96423 77.5387 13.07718 41.96423 57.45996 41.42364 44.72014 62.97177 41.42364 41.96423 57.45996 41.42364 41.96423 62.97177 41.42364 50.23195 77.5387 41.42364 41.96423 62.97177 41.42364 29.48909 77.5387 41.42364 29.48909 62.97177 41.42364 41.96423 62.97177 13.07718 50.23195 57.45996 13.07718 41.96423 62.97177 13.07718 41.96423 57.45996 13.07718 44.72014 57.45996 41.42364 44.72014 57.45996 13.07718 41.96423 57.45996 13.07718 44.72014 57.45996 41.42364 41.96423 62.97177 41.42364 50.23195 57.45996 13.07718 44.72014 62.97177 13.07718 50.23195 57.45996 41.42364 44.72014</float_array>
                    <technique_common>
                        <accessor count="30" source="#ID57" stride="3">
                            <param name="X" type="float" />
                            <param name="Y" type="float" />
                            <param name="Z" type="float" />
                        </accessor>
                    </technique_common>
                </source>
                <source id="ID55">
                    <float_array id="ID58" count="90">-0 1 -0 -0 1 -0 -0 1 -0 -0 1 -0 0 0 -1 0 0 -1 0 0 -1 0 0 -1 0 0 -1 0 0 -1 -0 1 -0 -0 1 -0 -0 1 -0 -0 1 -0 -0 -1 -0 -0 -1 -0 -0 -1 -0 -0 -1 -0 0 -1 0 0 -1 0 0 -1 0 0 -1 0 -1 0 0 -1 0 0 -1 0 0 -1 0 0 -0.7071068 0 0.7071068 -0.7071068 0 0.7071068 -0.7071068 0 0.7071068 -0.7071068 0 0.7071068</float_array>
                    <technique_common>
                        <accessor count="30" source="#ID58" stride="3">
                            <param name="X" type="float" />
                            <param name="Y" type="float" />
                            <param name="Z" type="float" />
                        </accessor>
                    </technique_common>
                </source>
                <vertices id="ID56">
                    <input semantic="POSITION" source="#ID54" />
                    <input semantic="NORMAL" source="#ID55" />
                </vertices>
                <triangles count="16" material="Material2">
                    <input offset="0" semantic="VERTEX" source="#ID56" />
                    <p>0 1 2 1 0 3 4 5 6 5 4 7 7 4 8 7 8 9 10 11 12 11 10 13 14 15 16 15 14 17 18 19 20 19 18 21 22 23 24 23 22 25 26 27 28 27 26 29</p>
                </triangles>
            </mesh>
        </geometry>
        <geometry id="ID59">
            <mesh>
                <source id="ID60">
                    <float_array id="ID63" count="78">103.1336 7.066258 45.35717 64.55095 5.082959 45.35717 64.55095 7.066258 45.35717 103.1336 5.082959 45.35717 103.1336 5.082959 45.35717 103.1336 5.082959 48.11307 103.1336 4.322769 46.73512 103.1336 7.066258 45.35717 103.1336 7.066258 48.11307 103.1336 4.322769 46.73512 64.55095 5.082959 45.35717 103.1336 5.082959 45.35717 64.55095 4.322769 46.73512 64.55095 5.082959 48.11307 64.55095 5.082959 45.35717 64.55095 4.322769 46.73512 64.55095 7.066258 48.11307 64.55095 7.066258 45.35717 103.1336 5.082959 48.11307 64.55095 4.322769 46.73512 103.1336 4.322769 46.73512 64.55095 5.082959 48.11307 103.1336 5.082959 48.11307 64.55095 7.066258 48.11307 64.55095 5.082959 48.11307 103.1336 7.066258 48.11307</float_array>
                    <technique_common>
                        <accessor count="26" source="#ID63" stride="3">
                            <param name="X" type="float" />
                            <param name="Y" type="float" />
                            <param name="Z" type="float" />
                        </accessor>
                    </technique_common>
                </source>
                <source id="ID61">
                    <float_array id="ID64" count="78">0 0 -1 0 0 -1 0 0 -1 0 0 -1 1 -0 -0 1 -0 -0 1 -0 -0 1 -0 -0 1 -0 -0 0 -0.8755938 -0.4830481 0 -0.8755938 -0.4830481 0 -0.8755938 -0.4830481 0 -0.8755938 -0.4830481 -1 0 0 -1 0 0 -1 0 0 -1 0 0 -1 0 0 0 -0.8755938 0.4830481 0 -0.8755938 0.4830481 0 -0.8755938 0.4830481 0 -0.8755938 0.4830481 -0 -0 1 -0 -0 1 -0 -0 1 -0 -0 1</float_array>
                    <technique_common>
                        <accessor count="26" source="#ID64" stride="3">
                            <param name="X" type="float" />
                            <param name="Y" type="float" />
                            <param name="Z" type="float" />
                        </accessor>
                    </technique_common>
                </source>
                <vertices id="ID62">
                    <input semantic="POSITION" source="#ID60" />
                    <input semantic="NORMAL" source="#ID61" />
                </vertices>
                <triangles count="14" material="Material2">
                    <input offset="0" semantic="VERTEX" source="#ID62" />
                    <p>0 1 2 1 0 3 4 5 6 5 4 7 5 7 8 9 10 11 10 9 12 13 14 15 14 13 16 14 16 17 18 19 20 19 18 21 22 23 24 23 22 25</p>
                </triangles>
            </mesh>
        </geometry>
        <geometry id="ID65">
            <mesh>
                <source id="ID68">
                    <float_array id="ID71" count="60">102.3462 -0.7874016 80.98264 64.94465 -0.7874016 68.38421 102.3462 -0.7874016 68.38421 64.94465 -0.7874016 80.98264 102.3462 -0.7874016 80.98264 64.94465 3.552714e-15 80.98264 64.94465 -0.7874016 80.98264 102.3462 0 80.98264 64.94465 3.552714e-15 80.98264 64.94465 -0.7874016 68.38421 64.94465 -0.7874016 80.98264 64.94465 3.552714e-15 68.38421 102.3462 0 68.38421 64.94465 -0.7874016 68.38421 64.94465 3.552714e-15 68.38421 102.3462 -0.7874016 68.38421 102.3462 0 68.38421 102.3462 -0.7874016 80.98264 102.3462 -0.7874016 68.38421 102.3462 0 80.98264</float_array>
                    <technique_common>
                        <accessor count="20" source="#ID71" stride="3">
                            <param name="X" type="float" />
                            <param name="Y" type="float" />
                            <param name="Z" type="float" />
                        </accessor>
                    </technique_common>
                </source>
                <source id="ID69">
                    <float_array id="ID72" count="60">-1.018999e-16 -1 2.313618e-18 -1.018999e-16 -1 2.313618e-18 -1.018999e-16 -1 2.313618e-18 -1.018999e-16 -1 2.313618e-18 0 0 1 0 0 1 0 0 1 0 0 1 -1 -6.015928e-15 -4.221689e-17 -1 -6.015928e-15 -4.221689e-17 -1 -6.015928e-15 -4.221689e-17 -1 -6.015928e-15 -4.221689e-17 0 0 -1 0 0 -1 0 0 -1 0 0 -1 1 -0 -0 1 -0 -0 1 -0 -0 1 -0 -0</float_array>
                    <technique_common>
                        <accessor count="20" source="#ID72" stride="3">
                            <param name="X" type="float" />
                            <param name="Y" type="float" />
                            <param name="Z" type="float" />
                        </accessor>
                    </technique_common>
                </source>
                <vertices id="ID70">
                    <input semantic="POSITION" source="#ID68" />
                    <input semantic="NORMAL" source="#ID69" />
                </vertices>
                <triangles count="10" material="Material2">
                    <input offset="0" semantic="VERTEX" source="#ID70" />
                    <p>0 1 2 1 0 3 4 5 6 5 4 7 8 9 10 9 8 11 12 13 14 13 12 15 16 17 18 17 16 19</p>
                </triangles>
            </mesh>
        </geometry>
        <geometry id="ID73">
            <mesh>
                <source id="ID74">
                    <float_array id="ID77" count="96">64.15725 4.322769 46.73512 103.1336 4.322769 45.35717 64.15725 4.322769 45.35717 103.1336 4.322769 46.73512 64.55095 4.322769 46.73512 64.15725 4.322769 48.11307 64.15725 -19.7054 45.35717 64.15725 -19.7054 48.11307 64.15725 4.322769 45.35717 64.15725 4.322769 46.73512 64.15725 4.322769 48.11307 103.1336 4.322769 48.11307 103.1336 4.322769 45.35717 103.1336 -19.7054 48.11307 103.1336 -19.7054 45.35717 103.1336 4.322769 48.11307 103.1336 4.322769 46.73512 103.1336 4.322769 45.35717 64.15725 -19.7054 45.35717 64.15725 4.322769 45.35717 103.1336 -19.7054 45.35717 64.15725 -19.7054 48.11307 102.7399 -19.58082 48.11307 64.15725 4.322769 48.11307 103.1336 -19.7054 48.11307 102.399 -19.17713 48.11307 103.0809 -19.17713 48.11307 103.1336 4.322769 48.11307 103.1336 -19.7054 48.11307 64.15725 -19.7054 45.35717 103.1336 -19.7054 45.35717 64.15725 -19.7054 48.11307</float_array>
                    <technique_common>
                        <accessor count="32" source="#ID77" stride="3">
                            <param name="X" type="float" />
                            <param name="Y" type="float" />
                            <param name="Z" type="float" />
                        </accessor>
                    </technique_common>
                </source>
                <source id="ID75">
                    <float_array id="ID78" count="96">-0 1 -0 -0 1 -0 -0 1 -0 -0 1 -0 -0 1 -0 -1 0 0 -1 0 0 -1 0 0 -1 0 0 -1 0 0 -0 1 -0 -0 1 -0 1 1.971416e-16 -0 1 1.971416e-16 -0 1 1.971416e-16 -0 1 1.971416e-16 -0 1 1.971416e-16 -0 0 0 -1 0 0 -1 0 0 -1 0 0 -1 -0 -0 1 -0 -0 1 -0 -0 1 -0 -0 1 -0 -0 1 -0 -0 1 -0 -0 1 0 -1 0 0 -1 0 0 -1 0 0 -1 0</float_array>
                    <technique_common>
                        <accessor count="32" source="#ID78" stride="3">
                            <param name="X" type="float" />
                            <param name="Y" type="float" />
                            <param name="Z" type="float" />
                        </accessor>
                    </technique_common>
                </source>
                <vertices id="ID76">
                    <input semantic="POSITION" source="#ID74" />
                    <input semantic="NORMAL" source="#ID75" />
                </vertices>
                <triangles count="23" material="Material2">
                    <input offset="0" semantic="VERTEX" source="#ID76" />
                    <p>0 1 2 1 0 3 3 0 4 5 6 7 6 5 8 8 5 9 10 4 0 4 10 3 3 10 11 12 13 14 13 12 15 15 12 16 17 18 19 18 17 20 21 22 23 22 21 24 23 22 25 22 24 26 25 27 23 27 25 26 27 26 24 28 29 30 29 28 31</p>
                </triangles>
            </mesh>
        </geometry>
        <geometry id="ID79">
            <mesh>
                <source id="ID80">
                    <float_array id="ID83" count="12">5.129228 16.36105 -33.07087 2.767023 13.99884 -33.07087 2.767023 16.36105 -33.07087 5.129228 13.99884 -33.07087</float_array>
                    <technique_common>
                        <accessor count="4" source="#ID83" stride="3">
                            <param name="X" type="float" />
                            <param name="Y" type="float" />
                            <param name="Z" type="float" />
                        </accessor>
                    </technique_common>
                </source>
                <source id="ID81">
                    <float_array id="ID84" count="12">0 0 -1 0 0 -1 0 0 -1 0 0 -1</float_array>
                    <technique_common>
                        <accessor count="4" source="#ID84" stride="3">
                            <param name="X" type="float" />
                            <param name="Y" type="float" />
                            <param name="Z" type="float" />
                        </accessor>
                    </technique_common>
                </source>
                <vertices id="ID82">
                    <input semantic="POSITION" source="#ID80" />
                    <input semantic="NORMAL" source="#ID81" />
                </vertices>
                <triangles count="2" material="Material2">
                    <input offset="0" semantic="VERTEX" source="#ID82" />
                    <p>0 1 2 1 0 3</p>
                </triangles>
            </mesh>
        </geometry>
        <geometry id="ID85">
            <mesh>
                <source id="ID86">
                    <float_array id="ID89" count="48">5.129228 16.36105 -33.07087 5.129228 13.99884 25.94578 5.129228 13.99884 -33.07087 5.129228 16.36105 25.94578 5.129228 13.99884 25.94578 2.767023 13.99884 -33.07087 5.129228 13.99884 -33.07087 2.767023 13.99884 25.94578 2.767023 16.36105 25.94578 5.129228 16.36105 -33.07087 2.767023 16.36105 -33.07087 5.129228 16.36105 25.94578 2.767023 16.36105 25.94578 2.767023 13.99884 -33.07087 2.767023 13.99884 25.94578 2.767023 16.36105 -33.07087</float_array>
                    <technique_common>
                        <accessor count="16" source="#ID89" stride="3">
                            <param name="X" type="float" />
                            <param name="Y" type="float" />
                            <param name="Z" type="float" />
                        </accessor>
                    </technique_common>
                </source>
                <source id="ID87">
                    <float_array id="ID90" count="48">1 0 0 1 0 0 1 0 0 1 0 0 -0 -1 -0 -0 -1 -0 -0 -1 -0 -0 -1 -0 -0 1 0 -0 1 0 -0 1 0 -0 1 0 -1 0 0 -1 0 0 -1 0 0 -1 0 0</float_array>
                    <technique_common>
                        <accessor count="16" source="#ID90" stride="3">
                            <param name="X" type="float" />
                            <param name="Y" type="float" />
                            <param name="Z" type="float" />
                        </accessor>
                    </technique_common>
                </source>
                <vertices id="ID88">
                    <input semantic="POSITION" source="#ID86" />
                    <input semantic="NORMAL" source="#ID87" />
                </vertices>
                <triangles count="8" material="Material2">
                    <input offset="0" semantic="VERTEX" source="#ID88" />
                    <p>0 1 2 1 0 3 4 5 6 5 4 7 8 9 10 9 8 11 12 13 14 13 12 15</p>
                </triangles>
            </mesh>
        </geometry>
        <geometry id="ID91">
            <mesh>
                <source id="ID92">
                    <float_array id="ID95" count="12">5.129228 40.7705 -33.07087 2.767023 38.40829 -33.07087 2.767023 40.7705 -33.07087 5.129228 38.40829 -33.07087</float_array>
                    <technique_common>
                        <accessor count="4" source="#ID95" stride="3">
                            <param name="X" type="float" />
                            <param name="Y" type="float" />
                            <param name="Z" type="float" />
                        </accessor>
                    </technique_common>
                </source>
                <source id="ID93">
                    <float_array id="ID96" count="12">0 0 -1 0 0 -1 0 0 -1 0 0 -1</float_array>
                    <technique_common>
                        <accessor count="4" source="#ID96" stride="3">
                            <param name="X" type="float" />
                            <param name="Y" type="float" />
                            <param name="Z" type="float" />
                        </accessor>
                    </technique_common>
                </source>
                <vertices id="ID94">
                    <input semantic="POSITION" source="#ID92" />
                    <input semantic="NORMAL" source="#ID93" />
                </vertices>
                <triangles count="2" material="Material2">
                    <input offset="0" semantic="VERTEX" source="#ID94" />
                    <p>0 1 2 1 0 3</p>
                </triangles>
            </mesh>
        </geometry>
        <geometry id="ID97">
            <mesh>
                <source id="ID98">
                    <float_array id="ID101" count="48">5.129228 40.7705 -33.07087 5.129228 38.40829 25.94578 5.129228 38.40829 -33.07087 5.129228 40.7705 25.94578 5.129228 38.40829 25.94578 2.767023 38.40829 -33.07087 5.129228 38.40829 -33.07087 2.767023 38.40829 25.94578 2.767023 40.7705 25.94578 5.129228 40.7705 -33.07087 2.767023 40.7705 -33.07087 5.129228 40.7705 25.94578 2.767023 40.7705 25.94578 2.767023 38.40829 -33.07087 2.767023 38.40829 25.94578 2.767023 40.7705 -33.07087</float_array>
                    <technique_common>
                        <accessor count="16" source="#ID101" stride="3">
                            <param name="X" type="float" />
                            <param name="Y" type="float" />
                            <param name="Z" type="float" />
                        </accessor>
                    </technique_common>
                </source>
                <source id="ID99">
                    <float_array id="ID102" count="48">1 0 0 1 0 0 1 0 0 1 0 0 -0 -1 -0 -0 -1 -0 -0 -1 -0 -0 -1 -0 -0 1 0 -0 1 0 -0 1 0 -0 1 0 -1 0 0 -1 0 0 -1 0 0 -1 0 0</float_array>
                    <technique_common>
                        <accessor count="16" source="#ID102" stride="3">
                            <param name="X" type="float" />
                            <param name="Y" type="float" />
                            <param name="Z" type="float" />
                        </accessor>
                    </technique_common>
                </source>
                <vertices id="ID100">
                    <input semantic="POSITION" source="#ID98" />
                    <input semantic="NORMAL" source="#ID99" />
                </vertices>
                <triangles count="8" material="Material2">
                    <input offset="0" semantic="VERTEX" source="#ID100" />
                    <p>0 1 2 1 0 3 4 5 6 5 4 7 8 9 10 9 8 11 12 13 14 13 12 15</p>
                </triangles>
            </mesh>
        </geometry>
        <geometry id="ID103">
            <mesh>
                <source id="ID104">
                    <float_array id="ID107" count="60">66.11389 47.35914 -33.07087 63.75169 44.99694 -33.07087 63.75169 47.35914 -33.07087 66.11389 44.99694 -33.07087 66.11389 47.35914 -33.07087 66.11389 44.99694 17.32283 66.11389 44.99694 -33.07087 66.11389 47.35914 17.32283 66.11389 44.99694 17.32283 63.75169 44.99694 -33.07087 66.11389 44.99694 -33.07087 63.75169 44.99694 17.32283 63.75169 47.35914 17.32283 63.75169 44.99694 -33.07087 63.75169 44.99694 17.32283 63.75169 47.35914 -33.07087 63.75169 47.35914 17.32283 66.11389 47.35914 -33.07087 63.75169 47.35914 -33.07087 66.11389 47.35914 17.32283</float_array>
                    <technique_common>
                        <accessor count="20" source="#ID107" stride="3">
                            <param name="X" type="float" />
                            <param name="Y" type="float" />
                            <param name="Z" type="float" />
                        </accessor>
                    </technique_common>
                </source>
                <source id="ID105">
                    <float_array id="ID108" count="60">0 0 -1 0 0 -1 0 0 -1 0 0 -1 1 0 0 1 0 0 1 0 0 1 0 0 -0 -1 -0 -0 -1 -0 -0 -1 -0 -0 -1 -0 -1 0 0 -1 0 0 -1 0 0 -1 0 0 -0 1 0 -0 1 0 -0 1 0 -0 1 0</float_array>
                    <technique_common>
                        <accessor count="20" source="#ID108" stride="3">
                            <param name="X" type="float" />
                            <param name="Y" type="float" />
                            <param name="Z" type="float" />
                        </accessor>
                    </technique_common>
                </source>
                <vertices id="ID106">
                    <input semantic="POSITION" source="#ID104" />
                    <input semantic="NORMAL" source="#ID105" />
                </vertices>
                <triangles count="10" material="Material2">
                    <input offset="0" semantic="VERTEX" source="#ID106" />
                    <p>0 1 2 1 0 3 4 5 6 5 4 7 8 9 10 9 8 11 12 13 14 13 12 15 16 17 18 17 16 19</p>
                </triangles>
            </mesh>
        </geometry>
        <geometry id="ID109">
            <mesh>
                <source id="ID110">
                    <float_array id="ID113" count="12">66.11389 10.35127 -33.07087 63.75169 7.989065 -33.07087 63.75169 10.35127 -33.07087 66.11389 7.989065 -33.07087</float_array>
                    <technique_common>
                        <accessor count="4" source="#ID113" stride="3">
                            <param name="X" type="float" />
                            <param name="Y" type="float" />
                            <param name="Z" type="float" />
                        </accessor>
                    </technique_common>
                </source>
                <source id="ID111">
                    <float_array id="ID114" count="12">0 0 -1 0 0 -1 0 0 -1 0 0 -1</float_array>
                    <technique_common>
                        <accessor count="4" source="#ID114" stride="3">
                            <param name="X" type="float" />
                            <param name="Y" type="float" />
                            <param name="Z" type="float" />
                        </accessor>
                    </technique_common>
                </source>
                <vertices id="ID112">
                    <input semantic="POSITION" source="#ID110" />
                    <input semantic="NORMAL" source="#ID111" />
                </vertices>
                <triangles count="2" material="Material2">
                    <input offset="0" semantic="VERTEX" source="#ID112" />
                    <p>0 1 2 1 0 3</p>
                </triangles>
            </mesh>
        </geometry>
        <geometry id="ID115">
            <mesh>
                <source id="ID116">
                    <float_array id="ID119" count="48">66.11389 10.35127 -33.07087 66.11389 7.989065 17.32283 66.11389 7.989065 -33.07087 66.11389 10.35127 17.32283 66.11389 7.989065 17.32283 63.75169 7.989065 -33.07087 66.11389 7.989065 -33.07087 63.75169 7.989065 17.32283 63.75169 10.35127 17.32283 66.11389 10.35127 -33.07087 63.75169 10.35127 -33.07087 66.11389 10.35127 17.32283 63.75169 10.35127 17.32283 63.75169 7.989065 -33.07087 63.75169 7.989065 17.32283 63.75169 10.35127 -33.07087</float_array>
                    <technique_common>
                        <accessor count="16" source="#ID119" stride="3">
                            <param name="X" type="float" />
                            <param name="Y" type="float" />
                            <param name="Z" type="float" />
                        </accessor>
                    </technique_common>
                </source>
                <source id="ID117">
                    <float_array id="ID120" count="48">1 0 0 1 0 0 1 0 0 1 0 0 -0 -1 -0 -0 -1 -0 -0 -1 -0 -0 -1 -0 -0 1 0 -0 1 0 -0 1 0 -0 1 0 -1 0 0 -1 0 0 -1 0 0 -1 0 0</float_array>
                    <technique_common>
                        <accessor count="16" source="#ID120" stride="3">
                            <param name="X" type="float" />
                            <param name="Y" type="float" />
                            <param name="Z" type="float" />
                        </accessor>
                    </technique_common>
                </source>
                <vertices id="ID118">
                    <input semantic="POSITION" source="#ID116" />
                    <input semantic="NORMAL" source="#ID117" />
                </vertices>
                <triangles count="8" material="Material2">
                    <input offset="0" semantic="VERTEX" source="#ID118" />
                    <p>0 1 2 1 0 3 4 5 6 5 4 7 8 9 10 9 8 11 12 13 14 13 12 15</p>
                </triangles>
            </mesh>
        </geometry>
        <geometry id="ID121">
            <mesh>
                <source id="ID122">
                    <float_array id="ID125" count="60">103.5155 47.35914 -33.07087 101.1533 44.99694 -33.07087 101.1533 47.35914 -33.07087 103.5155 44.99694 -33.07087 103.5155 47.35914 -33.07087 103.5155 44.99694 17.32283 103.5155 44.99694 -33.07087 103.5155 47.35914 17.32283 103.5155 44.99694 17.32283 101.1533 44.99694 -33.07087 103.5155 44.99694 -33.07087 101.1533 44.99694 17.32283 101.1533 47.35914 17.32283 101.1533 44.99694 -33.07087 101.1533 44.99694 17.32283 101.1533 47.35914 -33.07087 101.1533 47.35914 17.32283 103.5155 47.35914 -33.07087 101.1533 47.35914 -33.07087 103.5155 47.35914 17.32283</float_array>
                    <technique_common>
                        <accessor count="20" source="#ID125" stride="3">
                            <param name="X" type="float" />
                            <param name="Y" type="float" />
                            <param name="Z" type="float" />
                        </accessor>
                    </technique_common>
                </source>
                <source id="ID123">
                    <float_array id="ID126" count="60">0 0 -1 0 0 -1 0 0 -1 0 0 -1 1 0 0 1 0 0 1 0 0 1 0 0 -0 -1 -0 -0 -1 -0 -0 -1 -0 -0 -1 -0 -1 0 0 -1 0 0 -1 0 0 -1 0 0 -0 1 0 -0 1 0 -0 1 0 -0 1 0</float_array>
                    <technique_common>
                        <accessor count="20" source="#ID126" stride="3">
                            <param name="X" type="float" />
                            <param name="Y" type="float" />
                            <param name="Z" type="float" />
                        </accessor>
                    </technique_common>
                </source>
                <vertices id="ID124">
                    <input semantic="POSITION" source="#ID122" />
                    <input semantic="NORMAL" source="#ID123" />
                </vertices>
                <triangles count="10" material="Material2">
                    <input offset="0" semantic="VERTEX" source="#ID124" />
                    <p>0 1 2 1 0 3 4 5 6 5 4 7 8 9 10 9 8 11 12 13 14 13 12 15 16 17 18 17 16 19</p>
                </triangles>
            </mesh>
        </geometry>
        <geometry id="ID127">
            <mesh>
                <source id="ID128">
                    <float_array id="ID131" count="60">103.5155 10.35127 -33.07087 101.1533 7.989065 -33.07087 101.1533 10.35127 -33.07087 103.5155 7.989065 -33.07087 103.5155 10.35127 -33.07087 103.5155 7.989065 17.32283 103.5155 7.989065 -33.07087 103.5155 10.35127 17.32283 103.5155 7.989065 17.32283 101.1533 7.989065 -33.07087 103.5155 7.989065 -33.07087 101.1533 7.989065 17.32283 101.1533 10.35127 17.32283 101.1533 7.989065 -33.07087 101.1533 7.989065 17.32283 101.1533 10.35127 -33.07087 101.1533 10.35127 17.32283 103.5155 10.35127 -33.07087 101.1533 10.35127 -33.07087 103.5155 10.35127 17.32283</float_array>
                    <technique_common>
                        <accessor count="20" source="#ID131" stride="3">
                            <param name="X" type="float" />
                            <param name="Y" type="float" />
                            <param name="Z" type="float" />
                        </accessor>
                    </technique_common>
                </source>
                <source id="ID129">
                    <float_array id="ID132" count="60">0 0 -1 0 0 -1 0 0 -1 0 0 -1 1 0 0 1 0 0 1 0 0 1 0 0 -0 -1 -0 -0 -1 -0 -0 -1 -0 -0 -1 -0 -1 0 0 -1 0 0 -1 0 0 -1 0 0 -0 1 0 -0 1 0 -0 1 0 -0 1 0</float_array>
                    <technique_common>
                        <accessor count="20" source="#ID132" stride="3">
                            <param name="X" type="float" />
                            <param name="Y" type="float" />
                            <param name="Z" type="float" />
                        </accessor>
                    </technique_common>
                </source>
                <vertices id="ID130">
                    <input semantic="POSITION" source="#ID128" />
                    <input semantic="NORMAL" source="#ID129" />
                </vertices>
                <triangles count="10" material="Material2">
                    <input offset="0" semantic="VERTEX" source="#ID130" />
                    <p>0 1 2 1 0 3 4 5 6 5 4 7 8 9 10 9 8 11 12 13 14 13 12 15 16 17 18 17 16 19</p>
                </triangles>
            </mesh>
        </geometry>
        <geometry id="ID133">
            <mesh>
                <source id="ID136">
                    <float_array id="ID139" count="45">114.1782 -0.2818235 93.70079 114.1782 11.30391 93.70079 109.9694 5.511044 93.70079 120.9881 1.930855 93.70079 120.9881 9.091233 93.70079 120.9881 9.091233 89.76378 120.9881 1.930855 93.70079 120.9881 1.930855 89.76378 120.9881 9.091233 93.70079 114.1782 11.30391 93.70079 114.1782 11.30391 89.76378 109.9694 5.511044 89.76378 109.9694 5.511044 93.70079 114.1782 -0.2818235 89.76378 114.1782 -0.2818235 93.70079</float_array>
                    <technique_common>
                        <accessor count="15" source="#ID139" stride="3">
                            <param name="X" type="float" />
                            <param name="Y" type="float" />
                            <param name="Z" type="float" />
                        </accessor>
                    </technique_common>
                </source>
                <source id="ID137">
                    <float_array id="ID140" count="45">0 0 1 0 0 1 0 0 1 0 0 1 0 0 1 0.809017 0.5877853 0 0.809017 -0.5877853 0 0.809017 -0.5877853 0 0.809017 0.5877853 0 -0.309017 0.9510565 0 -0.309017 0.9510565 0 -1 0 0 -1 0 0 -0.309017 -0.9510565 0 -0.309017 -0.9510565 0</float_array>
                    <technique_common>
                        <accessor count="15" source="#ID140" stride="3">
                            <param name="X" type="float" />
                            <param name="Y" type="float" />
                            <param name="Z" type="float" />
                        </accessor>
                    </technique_common>
                </source>
                <vertices id="ID138">
                    <input semantic="POSITION" source="#ID136" />
                    <input semantic="NORMAL" source="#ID137" />
                </vertices>
                <triangles count="13" material="Material2">
                    <input offset="0" semantic="VERTEX" source="#ID138" />
                    <p>0 1 2 1 0 3 1 3 4 5 6 7 6 5 8 9 5 10 5 9 8 9 11 12 11 9 10 12 13 14 13 12 11 6 13 7 13 6 14</p>
                </triangles>
            </mesh>
        </geometry>
        <geometry id="ID141">
            <mesh>
                <source id="ID142">
                    <float_array id="ID145" count="51">119.8168 8.240185 62.99213 119.8168 2.781902 89.76378 119.8168 2.781902 62.99213 119.8168 8.240185 89.76378 114.6256 9.926887 89.76378 114.6256 9.926887 62.99213 114.6256 1.0952 62.99213 114.6256 1.0952 89.76378 114.6256 9.926887 62.99213 114.6256 1.0952 62.99213 111.4173 5.511044 62.99213 119.8168 8.240185 62.99213 119.8168 2.781902 62.99213 111.4173 5.511044 85.43307 111.4173 5.511044 89.76378 111.4173 5.511044 65.35433 111.4173 5.511044 62.99213</float_array>
                    <technique_common>
                        <accessor count="17" source="#ID145" stride="3">
                            <param name="X" type="float" />
                            <param name="Y" type="float" />
                            <param name="Z" type="float" />
                        </accessor>
                    </technique_common>
                </source>
                <source id="ID143">
                    <float_array id="ID146" count="51">0.809017 0.5877853 3.607403e-19 0.809017 -0.5877853 1.564497e-18 0.809017 -0.5877853 1.564497e-18 0.809017 0.5877853 3.607403e-19 -0.309017 0.9510565 1.071593e-18 -0.309017 0.9510565 1.071593e-18 -0.309017 -0.9510565 8.536439e-19 -0.309017 -0.9510565 8.536439e-19 0 0 -1 0 0 -1 0 0 -1 0 0 -1 0 0 -1 -1 0 6.062098e-34 -1 0 6.062098e-34 -1 0 6.062098e-34 -1 0 6.062098e-34</float_array>
                    <technique_common>
                        <accessor count="17" source="#ID146" stride="3">
                            <param name="X" type="float" />
                            <param name="Y" type="float" />
                            <param name="Z" type="float" />
                        </accessor>
                    </technique_common>
                </source>
                <vertices id="ID144">
                    <input semantic="POSITION" source="#ID142" />
                    <input semantic="NORMAL" source="#ID143" />
                </vertices>
                <triangles count="17" material="Material2">
                    <input offset="0" semantic="VERTEX" source="#ID144" />
                    <p>0 1 2 1 0 3 4 0 5 0 4 3 1 6 2 6 1 7 8 9 10 9 8 11 9 11 12 4 13 14 13 4 15 15 4 16 16 4 5 14 6 7 6 14 16 16 14 13 16 13 15</p>
                </triangles>
            </mesh>
        </geometry>
        <geometry id="ID147">
            <mesh>
                <source id="ID148">
                    <float_array id="ID151" count="30">114.1782 11.30391 89.76378 111.4173 5.511044 89.76378 109.9694 5.511044 89.76378 114.6256 9.926887 89.76378 120.9881 9.091233 89.76378 119.8168 8.240185 89.76378 119.8168 2.781902 89.76378 114.1782 -0.2818235 89.76378 114.6256 1.0952 89.76378 120.9881 1.930855 89.76378</float_array>
                    <technique_common>
                        <accessor count="10" source="#ID151" stride="3">
                            <param name="X" type="float" />
                            <param name="Y" type="float" />
                            <param name="Z" type="float" />
                        </accessor>
                    </technique_common>
                </source>
                <source id="ID149">
                    <float_array id="ID152" count="30">0 0 -1 0 0 -1 0 0 -1 0 0 -1 0 0 -1 0 0 -1 0 0 -1 0 0 -1 0 0 -1 0 0 -1</float_array>
                    <technique_common>
                        <accessor count="10" source="#ID152" stride="3">
                            <param name="X" type="float" />
                            <param name="Y" type="float" />
                            <param name="Z" type="float" />
                        </accessor>
                    </technique_common>
                </source>
                <vertices id="ID150">
                    <input semantic="POSITION" source="#ID148" />
                    <input semantic="NORMAL" source="#ID149" />
                </vertices>
                <triangles count="10" material="Material2">
                    <input offset="0" semantic="VERTEX" source="#ID150" />
                    <p>0 1 2 1 0 3 3 0 4 3 4 5 5 4 6 1 7 2 7 1 8 7 8 9 9 8 6 9 6 4</p>
                </triangles>
            </mesh>
        </geometry>
        <geometry id="ID153">
            <mesh>
                <source id="ID154">
                    <float_array id="ID157" count="39">102.7399 0 75.7874 102.399 -8.926522 61.2371 102.7399 -9.186478 61.42112 102.5126 -2.359224e-16 75.3937 102.399 0 75.19685 103.0809 0 75.19685 102.9672 -2.567391e-16 75.3937 103.0809 -8.926522 61.2371 102.399 0 75.19685 103.0809 0 75.19685 102.399 -19.17713 48.11307 102.7399 -19.58082 48.11307 103.0809 -19.17713 48.11307</float_array>
                    <technique_common>
                        <accessor count="13" source="#ID157" stride="3">
                            <param name="X" type="float" />
                            <param name="Y" type="float" />
                            <param name="Z" type="float" />
                        </accessor>
                    </technique_common>
                </source>
                <source id="ID155">
                    <float_array id="ID158" count="39">5.767068e-14 -0.8424827 0.5387233 -0.9205859 0.3187569 -0.225645 1.792412e-14 -0.816195 0.5777766 -0.6822256 -0.6159743 0.3938831 -0.9942457 -0.09025021 0.05771026 0.9942457 -0.09025021 0.05771026 0.6822256 -0.6159743 0.3938831 0.9205859 0.3187569 -0.225645 0.9942457 0.09025021 -0.05771026 -0.9942457 0.09025021 -0.05771026 -0.9989533 0.03604933 -0.02815656 -2.057483e-14 -0.7880983 0.6155493 0.9989533 0.03604933 -0.02815656</float_array>
                    <technique_common>
                        <accessor count="13" source="#ID158" stride="3">
                            <param name="X" type="float" />
                            <param name="Y" type="float" />
                            <param name="Z" type="float" />
                        </accessor>
                    </technique_common>
                </source>
                <vertices id="ID156">
                    <input semantic="POSITION" source="#ID154" />
                    <input semantic="NORMAL" source="#ID155" />
                </vertices>
                <triangles count="14" material="Material2">
                    <input offset="0" semantic="VERTEX" source="#ID156" />
                    <p>0 1 2 1 0 3 4 1 3 5 6 7 7 0 2 0 7 6 8 7 1 7 8 9 2 10 11 10 2 1 12 2 11 2 12 7 1 12 10 12 1 7</p>
                </triangles>
            </mesh>
        </geometry>
        <geometry id="ID159">
            <mesh>
                <source id="ID160">
                    <float_array id="ID163" count="39">64.20999 0 75.19685 64.8919 -8.926522 61.2371 64.20999 -8.926522 61.2371 64.8919 0 75.19685 64.8919 0 75.19685 64.77825 -2.567391e-16 75.3937 64.55095 0 75.7874 64.55095 -9.186478 61.42112 64.8919 -19.17713 48.11307 64.20999 -19.17713 48.11307 64.32365 -2.359224e-16 75.3937 64.20999 0 75.19685 64.55095 -19.58082 48.11307</float_array>
                    <technique_common>
                        <accessor count="13" source="#ID163" stride="3">
                            <param name="X" type="float" />
                            <param name="Y" type="float" />
                            <param name="Z" type="float" />
                        </accessor>
                    </technique_common>
                </source>
                <source id="ID161">
                    <float_array id="ID164" count="39">0.9942457 0.09025021 -0.05771026 0.9205859 0.3187569 -0.225645 -0.9205859 0.3187569 -0.225645 -0.9942457 0.09025021 -0.05771026 0.9942457 -0.09025021 0.05771026 0.6822256 -0.6159743 0.3938831 5.746903e-14 -0.8424827 0.5387233 -3.997362e-14 -0.816195 0.5777766 0.9989533 0.03604933 -0.02815656 -0.9989533 0.03604933 -0.02815656 -0.6822256 -0.6159743 0.3938831 -0.9942457 -0.09025021 0.05771026 -1.337715e-13 -0.7880983 0.6155493</float_array>
                    <technique_common>
                        <accessor count="13" source="#ID164" stride="3">
                            <param name="X" type="float" />
                            <param name="Y" type="float" />
                            <param name="Z" type="float" />
                        </accessor>
                    </technique_common>
                </source>
                <vertices id="ID162">
                    <input semantic="POSITION" source="#ID160" />
                    <input semantic="NORMAL" source="#ID161" />
                </vertices>
                <triangles count="14" material="Material2">
                    <input offset="0" semantic="VERTEX" source="#ID162" />
                    <p>0 1 2 1 0 3 4 5 1 1 6 7 6 1 5 2 8 9 8 2 1 6 2 7 2 6 10 11 2 10 8 7 12 7 8 1 7 9 12 9 7 2</p>
                </triangles>
            </mesh>
        </geometry>
    </library_geometries>
    <library_materials>
        <material id="ID6" name="colour4">
            <instance_effect url="#ID7" />
        </material>
        <material id="ID38" name="colour1">
            <instance_effect url="#ID39" />
        </material>
        <material id="ID46" name="colour6">
            <instance_effect url="#ID47" />
        </material>
        <material id="ID66" name="colour10">
            <instance_effect url="#ID67" />
        </material>
        <material id="ID134" name="colour3">
            <instance_effect url="#ID135" />
        </material>
    </library_materials>
    <library_effects>
        <effect id="ID7">
            <profile_COMMON>
                <technique sid="COMMON">
                    <lambert>
                        <diffuse>
                            <color>0.4392157 0.3294118 0.254902 1</color>
                        </diffuse>
                    </lambert>
                </technique>
            </profile_COMMON>
        </effect>
        <effect id="ID39">
            <profile_COMMON>
                <technique sid="COMMON">
                    <lambert>
                        <diffuse>
                            <color>0.5176471 0.5607843 0.5215686 1</color>
                        </diffuse>
                    </lambert>
                </technique>
            </profile_COMMON>
        </effect>
        <effect id="ID47">
            <profile_COMMON>
                <technique sid="COMMON">
                    <lambert>
                        <diffuse>
                            <color>0.2745098 0.2666667 0.2470588 1</color>
                        </diffuse>
                    </lambert>
                </technique>
            </profile_COMMON>
        </effect>
        <effect id="ID67">
            <profile_COMMON>
                <technique sid="COMMON">
                    <lambert>
                        <diffuse>
                            <color>0.7686275 0.7098039 0.5333333 1</color>
                        </diffuse>
                    </lambert>
                </technique>
            </profile_COMMON>
        </effect>
        <effect id="ID135">
            <profile_COMMON>
                <technique sid="COMMON">
                    <lambert>
                        <diffuse>
                            <color>0.7882353 0.8470588 0.7882353 1</color>
                        </diffuse>
                    </lambert>
                </technique>
            </profile_COMMON>
        </effect>
    </library_effects>
    <scene>
        <instance_visual_scene url="#ID2" />
    </scene>
</COLLADA>
