<?xml version="1.0" encoding="UTF-8" standalone="no" ?>
<COLLADA xmlns="http://www.collada.org/2005/11/COLLADASchema" version="1.4.1">
    <asset>
        <contributor>
            <authoring_tool>SketchUp 17.2.2555</authoring_tool>
        </contributor>
        <created>2021-08-31T03:54:47Z</created>
        <modified>2021-08-31T03:54:47Z</modified>
        <unit meter="0.0254" name="inch" />
        <up_axis>Z_UP</up_axis>
    </asset>
    <library_cameras>
        <camera id="ID1" name="skp_camera_Last_Saved_SketchUp_View">
            <optics>
                <technique_common>
                    <perspective>
                        <yfov>35</yfov>
                        <aspect_ratio>0</aspect_ratio>
                        <znear>1</znear>
                        <zfar>1000</zfar>
                    </perspective>
                </technique_common>
            </optics>
        </camera>
    </library_cameras>
    <library_visual_scenes>
        <visual_scene id="ID2">
            <node name="SketchUp">
                <instance_geometry url="#ID3">
                    <bind_material>
                        <technique_common>
                            <instance_material symbol="Material2" target="#ID4">
                                <bind_vertex_input semantic="UVSET0" input_semantic="TEXCOORD" input_set="0" />
                            </instance_material>
                        </technique_common>
                    </bind_material>
                </instance_geometry>
                <instance_geometry url="#ID11">
                    <bind_material>
                        <technique_common>
                            <instance_material symbol="Material2" target="#ID12">
                                <bind_vertex_input semantic="UVSET0" input_semantic="TEXCOORD" input_set="0" />
                            </instance_material>
                        </technique_common>
                    </bind_material>
                </instance_geometry>
                <instance_geometry url="#ID19">
                    <bind_material>
                        <technique_common>
                            <instance_material symbol="Material2" target="#ID4">
                                <bind_vertex_input semantic="UVSET0" input_semantic="TEXCOORD" input_set="0" />
                            </instance_material>
                        </technique_common>
                    </bind_material>
                </instance_geometry>
                <node name="skp_camera_Last_Saved_SketchUp_View">
                    <matrix>0.6643701 0.3264861 -0.6723237 -107.6555 -0.7474037 0.2902148 -0.5976312 -97.3899 -8.326673e-17 0.8995456 0.4368269 92.02556 0 0 0 1</matrix>
                    <instance_camera url="#ID1" />
                </node>
            </node>
        </visual_scene>
    </library_visual_scenes>
    <library_geometries>
        <geometry id="ID3">
            <mesh>
                <source id="ID6">
                    <float_array id="ID9" count="174">0 55.51181 0 37.10681 55.51181 -14.96063 0 55.51181 -14.96063 37.10681 55.51181 0 0.1596745 55.51181 2.121167 36.94713 55.51181 2.121167 0.1596745 55.51181 2.121167 0 0 0 0.1596745 0 2.121167 0 55.51181 0 37.10681 55.51181 0 36.94713 0 2.121167 37.10681 0 0 36.94713 55.51181 2.121167 37.10681 55.51181 -14.96063 37.10681 0 -14.96063 37.10681 55.51181 -14.96063 0 0 -14.96063 0 55.51181 -14.96063 13.31962 0 -14.96063 13.31962 -11.81102 -14.96063 22.35557 0 -14.96063 37.10681 0 -14.96063 22.35557 -11.81102 -14.96063 0 0 -14.96063 0 55.51181 -14.96063 13.50633 0 2.121167 0 0 -14.96063 13.31962 0 -14.96063 0 0 0 0.1596745 0 2.121167 37.10681 0 0 22.35557 0 -14.96063 37.10681 0 -14.96063 22.23124 0 2.121167 36.94713 0 2.121167 1.956009 2.755906 25.98425 0.1596745 0 2.121167 13.50633 0 2.121167 35.1508 2.755906 25.98425 22.23124 0 2.121167 36.94713 0 2.121167 13.91357 2.755906 15.69352 21.58296 1.968504 13.18086 18.5534 2.755906 37.40157 18.5534 2.755906 37.40157 18.5534 25.98425 33.46457 1.956009 2.755906 25.98425 18.5534 2.755906 37.40157 35.1508 2.755906 25.98425 18.5534 25.98425 33.46457 18.5534 2.755906 37.40157 5.499316 27.3622 24.40945 33.18229 27.3622 23.62205 1.956009 51.9685 25.98425 35.1508 51.9685 25.98425 18.5534 51.9685 37.40157 18.5534 51.9685 37.40157</float_array>
                    <technique_common>
                        <accessor count="58" source="#ID9" stride="3">
                            <param name="X" type="float" />
                            <param name="Y" type="float" />
                            <param name="Z" type="float" />
                        </accessor>
                    </technique_common>
                </source>
                <source id="ID7">
                    <float_array id="ID10" count="174">-0 1 -0 -0 1 -0 -0 1 -0 -0 1 -0 -0 1 -0 -0 1 -0 -0.9971787 1.321133e-18 0.07506433 -0.9992944 6.610331e-19 0.03755866 -0.9971787 1.321133e-18 0.07506433 -0.9992944 6.610331e-19 0.03755866 0.9992944 -1.299035e-19 0.03755866 0.9971787 -2.596237e-19 0.07506433 0.9992944 -1.299035e-19 0.03755866 0.9971787 -2.596237e-19 0.07506433 1 0 0 1 0 0 0 0 -1 0 0 -1 0 0 -1 0 0 -1 0 0 -1 0 0 -1 0 0 -1 0 0 -1 -1 0 0 -1 0 0 0 -1 0 0 -1 0 0 -1 0 0 -1 0 0 -1 0 0 -1 0 0 -1 0 0 -1 0 0 -1 0 0 -1 0 0.03093776 -0.9975556 0.06265592 -1.336031e-17 -0.9933972 0.1147257 0.04987958 -0.989123 0.138375 0.0001192845 -0.9972006 0.07477281 -0.03474248 -0.9904802 0.1331985 0 -0.9933972 0.1147257 0.1122411 -0.9850849 0.1304212 -0.06527875 -0.98936 0.1300214 -3.448369e-16 -1 4.623942e-16 0.02444577 -0.9990693 0.03553688 -0.5682443 0.009909512 0.8228002 -0.5590681 0.1360878 0.8178771 -0.5613055 0.1383002 0.8159713 0.5550379 0.1321167 0.8212662 0.5616421 0.009378942 0.8273271 0.5613055 0.1383002 0.8159713 -0.5705088 -0.007929207 0.8212532 0.5586173 -0.006198038 0.8294024 -0.566568 -0.1275363 0.8140855 0.5622162 -0.1237209 0.8176834 -0.5623869 -0.1238702 0.8175434 0.5623869 -0.1238702 0.8175434</float_array>
                    <technique_common>
                        <accessor count="58" source="#ID10" stride="3">
                            <param name="X" type="float" />
                            <param name="Y" type="float" />
                            <param name="Z" type="float" />
                        </accessor>
                    </technique_common>
                </source>
                <vertices id="ID8">
                    <input semantic="POSITION" source="#ID6" />
                    <input semantic="NORMAL" source="#ID7" />
                </vertices>
                <triangles count="38" material="Material2">
                    <input offset="0" semantic="VERTEX" source="#ID8" />
                    <p>0 1 2 1 0 3 3 0 4 3 4 5 6 7 8 7 6 9 10 11 12 11 10 13 14 12 15 12 14 10 16 17 18 17 16 19 19 16 20 20 16 21 21 16 22 23 20 21 9 24 7 24 9 25 26 27 28 27 26 29 29 26 30 31 32 33 32 31 34 34 31 35 36 37 38 39 40 41 36 38 42 39 43 40 44 36 42 45 43 39 46 47 48 49 50 51 46 52 47 49 53 50 46 54 52 55 50 53 56 54 46 55 57 50</p>
                </triangles>
            </mesh>
        </geometry>
        <geometry id="ID11">
            <mesh>
                <source id="ID14">
                    <float_array id="ID17" count="48">13.50633 0 2.121167 0.1596745 55.51181 2.121167 0.1596745 0 2.121167 36.94713 55.51181 2.121167 22.23124 0 2.121167 36.94713 0 2.121167 22.23124 0 2.121167 13.31962 -11.81102 -14.96063 22.35557 -11.81102 -14.96063 13.50633 0 2.121167 13.31962 0 -14.96063 13.31962 -11.81102 -14.96063 13.50633 0 2.121167 22.23124 0 2.121167 22.35557 -11.81102 -14.96063 22.35557 0 -14.96063</float_array>
                    <technique_common>
                        <accessor count="16" source="#ID17" stride="3">
                            <param name="X" type="float" />
                            <param name="Y" type="float" />
                            <param name="Z" type="float" />
                        </accessor>
                    </technique_common>
                </source>
                <source id="ID15">
                    <float_array id="ID18" count="48">6.222933e-18 3.961579e-18 1 6.222933e-18 3.961579e-18 1 6.222933e-18 3.961579e-18 1 6.222933e-18 3.961579e-18 1 6.222933e-18 3.961579e-18 1 6.222933e-18 3.961579e-18 1 1.051168e-16 -0.8225264 0.568727 1.051168e-16 -0.8225264 0.568727 1.051168e-16 -0.8225264 0.568727 1.051168e-16 -0.8225264 0.568727 -0.9999403 2.094611e-18 0.01092947 -0.9999403 2.094611e-18 0.01092947 -0.9999403 2.094611e-18 0.01092947 0.9999735 1.04734e-18 0.007278577 0.9999735 1.04734e-18 0.007278577 0.9999735 1.04734e-18 0.007278577</float_array>
                    <technique_common>
                        <accessor count="16" source="#ID18" stride="3">
                            <param name="X" type="float" />
                            <param name="Y" type="float" />
                            <param name="Z" type="float" />
                        </accessor>
                    </technique_common>
                </source>
                <vertices id="ID16">
                    <input semantic="POSITION" source="#ID14" />
                    <input semantic="NORMAL" source="#ID15" />
                </vertices>
                <triangles count="8" material="Material2">
                    <input offset="0" semantic="VERTEX" source="#ID16" />
                    <p>0 1 2 1 0 3 3 0 4 3 4 5 6 7 8 7 6 9 10 11 12 13 14 15</p>
                </triangles>
            </mesh>
        </geometry>
        <geometry id="ID19">
            <mesh>
                <source id="ID20">
                    <float_array id="ID23" count="90">18.5534 51.9685 37.40157 0.1596745 55.51181 2.121167 1.956009 51.9685 25.98425 1.956009 51.9685 25.98425 0.1596745 55.51181 2.121167 18.5534 51.9685 37.40157 36.94713 55.51181 2.121167 36.94713 55.51181 2.121167 0.1596745 55.51181 2.121167 5.499316 27.3622 24.40945 1.956009 51.9685 25.98425 1.956009 51.9685 25.98425 5.499316 27.3622 24.40945 0.1596745 55.51181 2.121167 35.1508 51.9685 25.98425 35.1508 51.9685 25.98425 0.1596745 0 2.121167 0.1596745 0 2.121167 36.94713 55.51181 2.121167 35.1508 51.9685 25.98425 33.18229 27.3622 23.62205 33.18229 27.3622 23.62205 35.1508 51.9685 25.98425 36.94713 55.51181 2.121167 1.956009 2.755906 25.98425 1.956009 2.755906 25.98425 36.94713 0 2.121167 36.94713 0 2.121167 35.1508 2.755906 25.98425 35.1508 2.755906 25.98425</float_array>
                    <technique_common>
                        <accessor count="30" source="#ID23" stride="3">
                            <param name="X" type="float" />
                            <param name="Y" type="float" />
                            <param name="Z" type="float" />
                        </accessor>
                    </technique_common>
                </source>
                <source id="ID21">
                    <float_array id="ID24" count="90">-2.860174e-17 0.9918058 0.1277549 -0.02875451 0.9929817 0.1147192 -0.1058261 0.9824124 0.1538396 0.1058261 -0.9824124 -0.1538396 0.02875451 -0.9929817 -0.1147192 2.860174e-17 -0.9918058 -0.1277549 0.02875451 0.9929817 0.1147192 -0.02875451 -0.9929817 -0.1147192 -0.98724 -0.07683173 0.139478 -0.9881356 0.0006778372 0.1535823 -0.9879311 -0.1456376 0.05274321 0.9879311 0.1456376 -0.05274321 0.9881356 -0.0006778372 -0.1535823 0.98724 0.07683173 -0.139478 0.1058261 0.9824124 0.1538396 -0.1058261 -0.9824124 -0.1538396 -0.9868912 0.07710071 0.1417785 0.9868912 -0.07710071 -0.1417785 0.9924792 -0.04613117 0.1133884 0.9943959 -0.0855187 0.06215661 0.9923546 0.0004112038 0.1234191 -0.9923546 -0.0004112038 -0.1234191 -0.9943959 0.0855187 -0.06215661 -0.9924792 0.04613117 -0.1133884 -0.9876274 0.1458981 0.05749583 0.9876274 -0.1458981 -0.05749583 0.9923084 0.04633129 0.1147932 -0.9923084 -0.04633129 -0.1147932 0.9941967 0.08576945 0.06493449 -0.9941967 -0.08576945 -0.06493449</float_array>
                    <technique_common>
                        <accessor count="30" source="#ID24" stride="3">
                            <param name="X" type="float" />
                            <param name="Y" type="float" />
                            <param name="Z" type="float" />
                        </accessor>
                    </technique_common>
                </source>
                <vertices id="ID22">
                    <input semantic="POSITION" source="#ID20" />
                    <input semantic="NORMAL" source="#ID21" />
                </vertices>
                <triangles count="18" material="Material2">
                    <input offset="0" semantic="VERTEX" source="#ID22" />
                    <p>0 1 2 3 4 5 0 6 1 4 7 5 8 9 10 11 12 13 0 14 6 7 15 5 8 16 9 12 17 13 18 19 20 21 22 23 9 16 24 25 17 12 18 20 26 27 21 23 20 28 26 27 29 21</p>
                </triangles>
            </mesh>
        </geometry>
    </library_geometries>
    <library_materials>
        <material id="ID4" name="colour3">
            <instance_effect url="#ID5" />
        </material>
        <material id="ID12" name="colour1">
            <instance_effect url="#ID13" />
        </material>
    </library_materials>
    <library_effects>
        <effect id="ID5">
            <profile_COMMON>
                <technique sid="COMMON">
                    <lambert>
                        <diffuse>
                            <color>0.7882353 0.8470588 0.7882353 1</color>
                        </diffuse>
                    </lambert>
                </technique>
            </profile_COMMON>
        </effect>
        <effect id="ID13">
            <profile_COMMON>
                <technique sid="COMMON">
                    <lambert>
                        <diffuse>
                            <color>0.5176471 0.5607843 0.5215686 1</color>
                        </diffuse>
                    </lambert>
                </technique>
            </profile_COMMON>
        </effect>
    </library_effects>
    <scene>
        <instance_visual_scene url="#ID2" />
    </scene>
</COLLADA>
